^D:\PROJECTS\_C++\AEDA\P1 - VINHOS\UTILIDADES.CPP
D:\PROJECTS\_C++\AEDA\P1 - VINHOS\UTILIDADES.H
D:\PROGRAM FILES (X86)\MICROSOFT VISUAL STUDIO 11.0\VC\INCLUDE\STRING
D:\PROGRAM FILES (X86)\MICROSOFT VISUAL STUDIO 11.0\VC\INCLUDE\ITERATOR
D:\PROGRAM FILES (X86)\MICROSOFT VISUAL STUDIO 11.0\VC\INCLUDE\ISTREAM
D:\PROGRAM FILES (X86)\MICROSOFT VISUAL STUDIO 11.0\VC\INCLUDE\OSTREAM
D:\PROGRAM FILES (X86)\MICROSOFT VISUAL STUDIO 11.0\VC\INCLUDE\IOS
D:\PROGRAM FILES (X86)\MICROSOFT VISUAL STUDIO 11.0\VC\INCLUDE\XLOCNUM
D:\PROGRAM FILES (X86)\MICROSOFT VISUAL STUDIO 11.0\VC\INCLUDE\CLIMITS
D:\PROGRAM FILES (X86)\MICROSOFT VISUAL STUDIO 11.0\VC\INCLUDE\YVALS.H
D:\PROGRAM FILES (X86)\MICROSOFT VISUAL STUDIO 11.0\VC\INCLUDE\XKEYCHECK.H
D:\PROGRAM FILES (X86)\MICROSOFT VISUAL STUDIO 11.0\VC\INCLUDE\CRTDEFS.H
D:\PROGRAM FILES (X86)\MICROSOFT VISUAL STUDIO 11.0\VC\INCLUDE\SAL.H
D:\PROGRAM FILES (X86)\MICROSOFT VISUAL STUDIO 11.0\VC\INCLUDE\CONCURRENCYSAL.H
D:\PROGRAM FILES (X86)\MICROSOFT VISUAL STUDIO 11.0\VC\INCLUDE\VADEFS.H
D:\PROGRAM FILES (X86)\MICROSOFT VISUAL STUDIO 11.0\VC\INCLUDE\USE_ANSI.H
D:\PROGRAM FILES (X86)\MICROSOFT VISUAL STUDIO 11.0\VC\INCLUDE\LIMITS.H
D:\PROGRAM FILES (X86)\MICROSOFT VISUAL STUDIO 11.0\VC\INCLUDE\CMATH
D:\PROGRAM FILES (X86)\MICROSOFT VISUAL STUDIO 11.0\VC\INCLUDE\MATH.H
D:\PROGRAM FILES (X86)\MICROSOFT VISUAL STUDIO 11.0\VC\INCLUDE\XTGMATH.H
D:\PROGRAM FILES (X86)\MICROSOFT VISUAL STUDIO 11.0\VC\INCLUDE\XTR1COMMON
D:\PROGRAM FILES (X86)\MICROSOFT VISUAL STUDIO 11.0\VC\INCLUDE\CSTDIO
D:\PROGRAM FILES (X86)\MICROSOFT VISUAL STUDIO 11.0\VC\INCLUDE\STDIO.H
D:\PROGRAM FILES (X86)\MICROSOFT VISUAL STUDIO 11.0\VC\INCLUDE\SWPRINTF.INL
D:\PROGRAM FILES (X86)\MICROSOFT VISUAL STUDIO 11.0\VC\INCLUDE\CSTDLIB
D:\PROGRAM FILES (X86)\MICROSOFT VISUAL STUDIO 11.0\VC\INCLUDE\STDLIB.H
D:\PROGRAM FILES (X86)\MICROSOFT VISUAL STUDIO 11.0\VC\INCLUDE\STREAMBUF
D:\PROGRAM FILES (X86)\MICROSOFT VISUAL STUDIO 11.0\VC\INCLUDE\XIOSBASE
D:\PROGRAM FILES (X86)\MICROSOFT VISUAL STUDIO 11.0\VC\INCLUDE\XLOCALE
D:\PROGRAM FILES (X86)\MICROSOFT VISUAL STUDIO 11.0\VC\INCLUDE\CSTRING
D:\PROGRAM FILES (X86)\MICROSOFT VISUAL STUDIO 11.0\VC\INCLUDE\STRING.H
D:\PROGRAM FILES (X86)\MICROSOFT VISUAL STUDIO 11.0\VC\INCLUDE\STDEXCEPT
D:\PROGRAM FILES (X86)\MICROSOFT VISUAL STUDIO 11.0\VC\INCLUDE\EXCEPTION
D:\PROGRAM FILES (X86)\MICROSOFT VISUAL STUDIO 11.0\VC\INCLUDE\XSTDDEF
D:\PROGRAM FILES (X86)\MICROSOFT VISUAL STUDIO 11.0\VC\INCLUDE\CSTDDEF
D:\PROGRAM FILES (X86)\MICROSOFT VISUAL STUDIO 11.0\VC\INCLUDE\STDDEF.H
D:\PROGRAM FILES (X86)\MICROSOFT VISUAL STUDIO 11.0\VC\INCLUDE\EH.H
D:\PROGRAM FILES (X86)\MICROSOFT VISUAL STUDIO 11.0\VC\INCLUDE\MALLOC.H
D:\PROGRAM FILES (X86)\MICROSOFT VISUAL STUDIO 11.0\VC\INCLUDE\XSTRING
D:\PROGRAM FILES (X86)\MICROSOFT VISUAL STUDIO 11.0\VC\INCLUDE\XMEMORY0
D:\PROGRAM FILES (X86)\MICROSOFT VISUAL STUDIO 11.0\VC\INCLUDE\LIMITS
D:\PROGRAM FILES (X86)\MICROSOFT VISUAL STUDIO 11.0\VC\INCLUDE\YMATH.H
D:\PROGRAM FILES (X86)\MICROSOFT VISUAL STUDIO 11.0\VC\INCLUDE\CFLOAT
D:\PROGRAM FILES (X86)\MICROSOFT VISUAL STUDIO 11.0\VC\INCLUDE\FLOAT.H
D:\PROGRAM FILES (X86)\MICROSOFT VISUAL STUDIO 11.0\VC\INCLUDE\CRTWRN.H
D:\PROGRAM FILES (X86)\MICROSOFT VISUAL STUDIO 11.0\VC\INCLUDE\CWCHAR
D:\PROGRAM FILES (X86)\MICROSOFT VISUAL STUDIO 11.0\VC\INCLUDE\WCHAR.H
D:\PROGRAM FILES (X86)\MICROSOFT VISUAL STUDIO 11.0\VC\INCLUDE\WTIME.INL
D:\PROGRAM FILES (X86)\MICROSOFT VISUAL STUDIO 11.0\VC\INCLUDE\NEW
D:\PROGRAM FILES (X86)\MICROSOFT VISUAL STUDIO 11.0\VC\INCLUDE\XUTILITY
D:\PROGRAM FILES (X86)\MICROSOFT VISUAL STUDIO 11.0\VC\INCLUDE\UTILITY
D:\PROGRAM FILES (X86)\MICROSOFT VISUAL STUDIO 11.0\VC\INCLUDE\IOSFWD
D:\PROGRAM FILES (X86)\MICROSOFT VISUAL STUDIO 11.0\VC\INCLUDE\CRTDBG.H
D:\PROGRAM FILES (X86)\MICROSOFT VISUAL STUDIO 11.0\VC\INCLUDE\TYPE_TRAITS
D:\PROGRAM FILES (X86)\MICROSOFT VISUAL STUDIO 11.0\VC\INCLUDE\XREFWRAP
D:\PROGRAM FILES (X86)\MICROSOFT VISUAL STUDIO 11.0\VC\INCLUDE\XATOMIC0.H
D:\PROGRAM FILES (X86)\MICROSOFT VISUAL STUDIO 11.0\VC\INCLUDE\INTRIN.H
D:\PROGRAM FILES (X86)\MICROSOFT VISUAL STUDIO 11.0\VC\INCLUDE\SETJMP.H
D:\PROGRAM FILES (X86)\MICROSOFT VISUAL STUDIO 11.0\VC\INCLUDE\IMMINTRIN.H
D:\PROGRAM FILES (X86)\MICROSOFT VISUAL STUDIO 11.0\VC\INCLUDE\WMMINTRIN.H
D:\PROGRAM FILES (X86)\MICROSOFT VISUAL STUDIO 11.0\VC\INCLUDE\NMMINTRIN.H
D:\PROGRAM FILES (X86)\MICROSOFT VISUAL STUDIO 11.0\VC\INCLUDE\SMMINTRIN.H
D:\PROGRAM FILES (X86)\MICROSOFT VISUAL STUDIO 11.0\VC\INCLUDE\TMMINTRIN.H
D:\PROGRAM FILES (X86)\MICROSOFT VISUAL STUDIO 11.0\VC\INCLUDE\PMMINTRIN.H
D:\PROGRAM FILES (X86)\MICROSOFT VISUAL STUDIO 11.0\VC\INCLUDE\EMMINTRIN.H
D:\PROGRAM FILES (X86)\MICROSOFT VISUAL STUDIO 11.0\VC\INCLUDE\XMMINTRIN.H
D:\PROGRAM FILES (X86)\MICROSOFT VISUAL STUDIO 11.0\VC\INCLUDE\MMINTRIN.H
D:\PROGRAM FILES (X86)\MICROSOFT VISUAL STUDIO 11.0\VC\INCLUDE\AMMINTRIN.H
D:\PROGRAM FILES (X86)\MICROSOFT VISUAL STUDIO 11.0\VC\INCLUDE\MM3DNOW.H
D:\PROGRAM FILES (X86)\MICROSOFT VISUAL STUDIO 11.0\VC\INCLUDE\TYPEINFO
D:\PROGRAM FILES (X86)\MICROSOFT VISUAL STUDIO 11.0\VC\INCLUDE\XLOCINFO
D:\PROGRAM FILES (X86)\MICROSOFT VISUAL STUDIO 11.0\VC\INCLUDE\XLOCINFO.H
D:\PROGRAM FILES (X86)\MICROSOFT VISUAL STUDIO 11.0\VC\INCLUDE\CTYPE.H
D:\PROGRAM FILES (X86)\MICROSOFT VISUAL STUDIO 11.0\VC\INCLUDE\LOCALE.H
D:\PROGRAM FILES (X86)\MICROSOFT VISUAL STUDIO 11.0\VC\INCLUDE\XDEBUG
D:\PROGRAM FILES (X86)\MICROSOFT VISUAL STUDIO 11.0\VC\INCLUDE\XFACET
D:\PROGRAM FILES (X86)\MICROSOFT VISUAL STUDIO 11.0\VC\INCLUDE\SYSTEM_ERROR
D:\PROGRAM FILES (X86)\MICROSOFT VISUAL STUDIO 11.0\VC\INCLUDE\CERRNO
D:\PROGRAM FILES (X86)\MICROSOFT VISUAL STUDIO 11.0\VC\INCLUDE\ERRNO.H
D:\PROGRAM FILES (X86)\MICROSOFT VISUAL STUDIO 11.0\VC\INCLUDE\SHARE.H
D:\PROGRAM FILES (X86)\MICROSOFT VISUAL STUDIO 11.0\VC\INCLUDE\VECTOR
D:\PROGRAM FILES (X86)\MICROSOFT VISUAL STUDIO 11.0\VC\INCLUDE\XMEMORY
D:\PROGRAM FILES (X86)\MICROSOFT VISUAL STUDIO 11.0\VC\INCLUDE\MAP
D:\PROGRAM FILES (X86)\MICROSOFT VISUAL STUDIO 11.0\VC\INCLUDE\XTREE
D:\PROGRAM FILES (X86)\MICROSOFT VISUAL STUDIO 11.0\VC\INCLUDE\IOSTREAM
D:\PROGRAM FILES (X86)\MICROSOFT VISUAL STUDIO 11.0\VC\INCLUDE\CTIME
D:\PROGRAM FILES (X86)\MICROSOFT VISUAL STUDIO 11.0\VC\INCLUDE\TIME.H
D:\PROGRAM FILES (X86)\MICROSOFT VISUAL STUDIO 11.0\VC\INCLUDE\TIME.INL
D:\PROGRAM FILES (X86)\MICROSOFT VISUAL STUDIO 11.0\VC\INCLUDE\SSTREAM
^D:\PROJECTS\_C++\AEDA\P1 - VINHOS\UVA.CPP
D:\PROJECTS\_C++\AEDA\P1 - VINHOS\UVA.H
D:\PROGRAM FILES (X86)\MICROSOFT VISUAL STUDIO 11.0\VC\INCLUDE\STRING
D:\PROGRAM FILES (X86)\MICROSOFT VISUAL STUDIO 11.0\VC\INCLUDE\ITERATOR
D:\PROGRAM FILES (X86)\MICROSOFT VISUAL STUDIO 11.0\VC\INCLUDE\ISTREAM
D:\PROGRAM FILES (X86)\MICROSOFT VISUAL STUDIO 11.0\VC\INCLUDE\OSTREAM
D:\PROGRAM FILES (X86)\MICROSOFT VISUAL STUDIO 11.0\VC\INCLUDE\IOS
D:\PROGRAM FILES (X86)\MICROSOFT VISUAL STUDIO 11.0\VC\INCLUDE\XLOCNUM
D:\PROGRAM FILES (X86)\MICROSOFT VISUAL STUDIO 11.0\VC\INCLUDE\CLIMITS
D:\PROGRAM FILES (X86)\MICROSOFT VISUAL STUDIO 11.0\VC\INCLUDE\YVALS.H
D:\PROGRAM FILES (X86)\MICROSOFT VISUAL STUDIO 11.0\VC\INCLUDE\XKEYCHECK.H
D:\PROGRAM FILES (X86)\MICROSOFT VISUAL STUDIO 11.0\VC\INCLUDE\CRTDEFS.H
D:\PROGRAM FILES (X86)\MICROSOFT VISUAL STUDIO 11.0\VC\INCLUDE\SAL.H
D:\PROGRAM FILES (X86)\MICROSOFT VISUAL STUDIO 11.0\VC\INCLUDE\CONCURRENCYSAL.H
D:\PROGRAM FILES (X86)\MICROSOFT VISUAL STUDIO 11.0\VC\INCLUDE\VADEFS.H
D:\PROGRAM FILES (X86)\MICROSOFT VISUAL STUDIO 11.0\VC\INCLUDE\USE_ANSI.H
D:\PROGRAM FILES (X86)\MICROSOFT VISUAL STUDIO 11.0\VC\INCLUDE\LIMITS.H
D:\PROGRAM FILES (X86)\MICROSOFT VISUAL STUDIO 11.0\VC\INCLUDE\CMATH
D:\PROGRAM FILES (X86)\MICROSOFT VISUAL STUDIO 11.0\VC\INCLUDE\MATH.H
D:\PROGRAM FILES (X86)\MICROSOFT VISUAL STUDIO 11.0\VC\INCLUDE\XTGMATH.H
D:\PROGRAM FILES (X86)\MICROSOFT VISUAL STUDIO 11.0\VC\INCLUDE\XTR1COMMON
D:\PROGRAM FILES (X86)\MICROSOFT VISUAL STUDIO 11.0\VC\INCLUDE\CSTDIO
D:\PROGRAM FILES (X86)\MICROSOFT VISUAL STUDIO 11.0\VC\INCLUDE\STDIO.H
D:\PROGRAM FILES (X86)\MICROSOFT VISUAL STUDIO 11.0\VC\INCLUDE\SWPRINTF.INL
D:\PROGRAM FILES (X86)\MICROSOFT VISUAL STUDIO 11.0\VC\INCLUDE\CSTDLIB
D:\PROGRAM FILES (X86)\MICROSOFT VISUAL STUDIO 11.0\VC\INCLUDE\STDLIB.H
D:\PROGRAM FILES (X86)\MICROSOFT VISUAL STUDIO 11.0\VC\INCLUDE\STREAMBUF
D:\PROGRAM FILES (X86)\MICROSOFT VISUAL STUDIO 11.0\VC\INCLUDE\XIOSBASE
D:\PROGRAM FILES (X86)\MICROSOFT VISUAL STUDIO 11.0\VC\INCLUDE\XLOCALE
D:\PROGRAM FILES (X86)\MICROSOFT VISUAL STUDIO 11.0\VC\INCLUDE\CSTRING
D:\PROGRAM FILES (X86)\MICROSOFT VISUAL STUDIO 11.0\VC\INCLUDE\STRING.H
D:\PROGRAM FILES (X86)\MICROSOFT VISUAL STUDIO 11.0\VC\INCLUDE\STDEXCEPT
D:\PROGRAM FILES (X86)\MICROSOFT VISUAL STUDIO 11.0\VC\INCLUDE\EXCEPTION
D:\PROGRAM FILES (X86)\MICROSOFT VISUAL STUDIO 11.0\VC\INCLUDE\XSTDDEF
D:\PROGRAM FILES (X86)\MICROSOFT VISUAL STUDIO 11.0\VC\INCLUDE\CSTDDEF
D:\PROGRAM FILES (X86)\MICROSOFT VISUAL STUDIO 11.0\VC\INCLUDE\STDDEF.H
D:\PROGRAM FILES (X86)\MICROSOFT VISUAL STUDIO 11.0\VC\INCLUDE\EH.H
D:\PROGRAM FILES (X86)\MICROSOFT VISUAL STUDIO 11.0\VC\INCLUDE\MALLOC.H
D:\PROGRAM FILES (X86)\MICROSOFT VISUAL STUDIO 11.0\VC\INCLUDE\XSTRING
D:\PROGRAM FILES (X86)\MICROSOFT VISUAL STUDIO 11.0\VC\INCLUDE\XMEMORY0
D:\PROGRAM FILES (X86)\MICROSOFT VISUAL STUDIO 11.0\VC\INCLUDE\LIMITS
D:\PROGRAM FILES (X86)\MICROSOFT VISUAL STUDIO 11.0\VC\INCLUDE\YMATH.H
D:\PROGRAM FILES (X86)\MICROSOFT VISUAL STUDIO 11.0\VC\INCLUDE\CFLOAT
D:\PROGRAM FILES (X86)\MICROSOFT VISUAL STUDIO 11.0\VC\INCLUDE\FLOAT.H
D:\PROGRAM FILES (X86)\MICROSOFT VISUAL STUDIO 11.0\VC\INCLUDE\CRTWRN.H
D:\PROGRAM FILES (X86)\MICROSOFT VISUAL STUDIO 11.0\VC\INCLUDE\CWCHAR
D:\PROGRAM FILES (X86)\MICROSOFT VISUAL STUDIO 11.0\VC\INCLUDE\WCHAR.H
D:\PROGRAM FILES (X86)\MICROSOFT VISUAL STUDIO 11.0\VC\INCLUDE\WTIME.INL
D:\PROGRAM FILES (X86)\MICROSOFT VISUAL STUDIO 11.0\VC\INCLUDE\NEW
D:\PROGRAM FILES (X86)\MICROSOFT VISUAL STUDIO 11.0\VC\INCLUDE\XUTILITY
D:\PROGRAM FILES (X86)\MICROSOFT VISUAL STUDIO 11.0\VC\INCLUDE\UTILITY
D:\PROGRAM FILES (X86)\MICROSOFT VISUAL STUDIO 11.0\VC\INCLUDE\IOSFWD
D:\PROGRAM FILES (X86)\MICROSOFT VISUAL STUDIO 11.0\VC\INCLUDE\CRTDBG.H
D:\PROGRAM FILES (X86)\MICROSOFT VISUAL STUDIO 11.0\VC\INCLUDE\TYPE_TRAITS
D:\PROGRAM FILES (X86)\MICROSOFT VISUAL STUDIO 11.0\VC\INCLUDE\XREFWRAP
D:\PROGRAM FILES (X86)\MICROSOFT VISUAL STUDIO 11.0\VC\INCLUDE\XATOMIC0.H
D:\PROGRAM FILES (X86)\MICROSOFT VISUAL STUDIO 11.0\VC\INCLUDE\INTRIN.H
D:\PROGRAM FILES (X86)\MICROSOFT VISUAL STUDIO 11.0\VC\INCLUDE\SETJMP.H
D:\PROGRAM FILES (X86)\MICROSOFT VISUAL STUDIO 11.0\VC\INCLUDE\IMMINTRIN.H
D:\PROGRAM FILES (X86)\MICROSOFT VISUAL STUDIO 11.0\VC\INCLUDE\WMMINTRIN.H
D:\PROGRAM FILES (X86)\MICROSOFT VISUAL STUDIO 11.0\VC\INCLUDE\NMMINTRIN.H
D:\PROGRAM FILES (X86)\MICROSOFT VISUAL STUDIO 11.0\VC\INCLUDE\SMMINTRIN.H
D:\PROGRAM FILES (X86)\MICROSOFT VISUAL STUDIO 11.0\VC\INCLUDE\TMMINTRIN.H
D:\PROGRAM FILES (X86)\MICROSOFT VISUAL STUDIO 11.0\VC\INCLUDE\PMMINTRIN.H
D:\PROGRAM FILES (X86)\MICROSOFT VISUAL STUDIO 11.0\VC\INCLUDE\EMMINTRIN.H
D:\PROGRAM FILES (X86)\MICROSOFT VISUAL STUDIO 11.0\VC\INCLUDE\XMMINTRIN.H
D:\PROGRAM FILES (X86)\MICROSOFT VISUAL STUDIO 11.0\VC\INCLUDE\MMINTRIN.H
D:\PROGRAM FILES (X86)\MICROSOFT VISUAL STUDIO 11.0\VC\INCLUDE\AMMINTRIN.H
D:\PROGRAM FILES (X86)\MICROSOFT VISUAL STUDIO 11.0\VC\INCLUDE\MM3DNOW.H
D:\PROGRAM FILES (X86)\MICROSOFT VISUAL STUDIO 11.0\VC\INCLUDE\TYPEINFO
D:\PROGRAM FILES (X86)\MICROSOFT VISUAL STUDIO 11.0\VC\INCLUDE\XLOCINFO
D:\PROGRAM FILES (X86)\MICROSOFT VISUAL STUDIO 11.0\VC\INCLUDE\XLOCINFO.H
D:\PROGRAM FILES (X86)\MICROSOFT VISUAL STUDIO 11.0\VC\INCLUDE\CTYPE.H
D:\PROGRAM FILES (X86)\MICROSOFT VISUAL STUDIO 11.0\VC\INCLUDE\LOCALE.H
D:\PROGRAM FILES (X86)\MICROSOFT VISUAL STUDIO 11.0\VC\INCLUDE\XDEBUG
D:\PROGRAM FILES (X86)\MICROSOFT VISUAL STUDIO 11.0\VC\INCLUDE\XFACET
D:\PROGRAM FILES (X86)\MICROSOFT VISUAL STUDIO 11.0\VC\INCLUDE\SYSTEM_ERROR
D:\PROGRAM FILES (X86)\MICROSOFT VISUAL STUDIO 11.0\VC\INCLUDE\CERRNO
D:\PROGRAM FILES (X86)\MICROSOFT VISUAL STUDIO 11.0\VC\INCLUDE\ERRNO.H
D:\PROGRAM FILES (X86)\MICROSOFT VISUAL STUDIO 11.0\VC\INCLUDE\SHARE.H
D:\PROJECTS\_C++\AEDA\P1 - VINHOS\UTILIDADES.H
D:\PROGRAM FILES (X86)\MICROSOFT VISUAL STUDIO 11.0\VC\INCLUDE\VECTOR
D:\PROGRAM FILES (X86)\MICROSOFT VISUAL STUDIO 11.0\VC\INCLUDE\XMEMORY
D:\PROGRAM FILES (X86)\MICROSOFT VISUAL STUDIO 11.0\VC\INCLUDE\MAP
D:\PROGRAM FILES (X86)\MICROSOFT VISUAL STUDIO 11.0\VC\INCLUDE\XTREE
D:\PROGRAM FILES (X86)\MICROSOFT VISUAL STUDIO 11.0\VC\INCLUDE\IOSTREAM
D:\PROGRAM FILES (X86)\MICROSOFT VISUAL STUDIO 11.0\VC\INCLUDE\CTIME
D:\PROGRAM FILES (X86)\MICROSOFT VISUAL STUDIO 11.0\VC\INCLUDE\TIME.H
D:\PROGRAM FILES (X86)\MICROSOFT VISUAL STUDIO 11.0\VC\INCLUDE\TIME.INL
D:\PROGRAM FILES (X86)\MICROSOFT VISUAL STUDIO 11.0\VC\INCLUDE\SSTREAM
^D:\PROJECTS\_C++\AEDA\P1 - VINHOS\PRODUTO.CPP
D:\PROJECTS\_C++\AEDA\P1 - VINHOS\PRODUTO.H
D:\PROGRAM FILES (X86)\MICROSOFT VISUAL STUDIO 11.0\VC\INCLUDE\STRING
D:\PROGRAM FILES (X86)\MICROSOFT VISUAL STUDIO 11.0\VC\INCLUDE\ITERATOR
D:\PROGRAM FILES (X86)\MICROSOFT VISUAL STUDIO 11.0\VC\INCLUDE\ISTREAM
D:\PROGRAM FILES (X86)\MICROSOFT VISUAL STUDIO 11.0\VC\INCLUDE\OSTREAM
D:\PROGRAM FILES (X86)\MICROSOFT VISUAL STUDIO 11.0\VC\INCLUDE\IOS
D:\PROGRAM FILES (X86)\MICROSOFT VISUAL STUDIO 11.0\VC\INCLUDE\XLOCNUM
D:\PROGRAM FILES (X86)\MICROSOFT VISUAL STUDIO 11.0\VC\INCLUDE\CLIMITS
D:\PROGRAM FILES (X86)\MICROSOFT VISUAL STUDIO 11.0\VC\INCLUDE\YVALS.H
D:\PROGRAM FILES (X86)\MICROSOFT VISUAL STUDIO 11.0\VC\INCLUDE\XKEYCHECK.H
D:\PROGRAM FILES (X86)\MICROSOFT VISUAL STUDIO 11.0\VC\INCLUDE\CRTDEFS.H
D:\PROGRAM FILES (X86)\MICROSOFT VISUAL STUDIO 11.0\VC\INCLUDE\SAL.H
D:\PROGRAM FILES (X86)\MICROSOFT VISUAL STUDIO 11.0\VC\INCLUDE\CONCURRENCYSAL.H
D:\PROGRAM FILES (X86)\MICROSOFT VISUAL STUDIO 11.0\VC\INCLUDE\VADEFS.H
D:\PROGRAM FILES (X86)\MICROSOFT VISUAL STUDIO 11.0\VC\INCLUDE\USE_ANSI.H
D:\PROGRAM FILES (X86)\MICROSOFT VISUAL STUDIO 11.0\VC\INCLUDE\LIMITS.H
D:\PROGRAM FILES (X86)\MICROSOFT VISUAL STUDIO 11.0\VC\INCLUDE\CMATH
D:\PROGRAM FILES (X86)\MICROSOFT VISUAL STUDIO 11.0\VC\INCLUDE\MATH.H
D:\PROGRAM FILES (X86)\MICROSOFT VISUAL STUDIO 11.0\VC\INCLUDE\XTGMATH.H
D:\PROGRAM FILES (X86)\MICROSOFT VISUAL STUDIO 11.0\VC\INCLUDE\XTR1COMMON
D:\PROGRAM FILES (X86)\MICROSOFT VISUAL STUDIO 11.0\VC\INCLUDE\CSTDIO
D:\PROGRAM FILES (X86)\MICROSOFT VISUAL STUDIO 11.0\VC\INCLUDE\STDIO.H
D:\PROGRAM FILES (X86)\MICROSOFT VISUAL STUDIO 11.0\VC\INCLUDE\SWPRINTF.INL
D:\PROGRAM FILES (X86)\MICROSOFT VISUAL STUDIO 11.0\VC\INCLUDE\CSTDLIB
D:\PROGRAM FILES (X86)\MICROSOFT VISUAL STUDIO 11.0\VC\INCLUDE\STDLIB.H
D:\PROGRAM FILES (X86)\MICROSOFT VISUAL STUDIO 11.0\VC\INCLUDE\STREAMBUF
D:\PROGRAM FILES (X86)\MICROSOFT VISUAL STUDIO 11.0\VC\INCLUDE\XIOSBASE
D:\PROGRAM FILES (X86)\MICROSOFT VISUAL STUDIO 11.0\VC\INCLUDE\XLOCALE
D:\PROGRAM FILES (X86)\MICROSOFT VISUAL STUDIO 11.0\VC\INCLUDE\CSTRING
D:\PROGRAM FILES (X86)\MICROSOFT VISUAL STUDIO 11.0\VC\INCLUDE\STRING.H
D:\PROGRAM FILES (X86)\MICROSOFT VISUAL STUDIO 11.0\VC\INCLUDE\STDEXCEPT
D:\PROGRAM FILES (X86)\MICROSOFT VISUAL STUDIO 11.0\VC\INCLUDE\EXCEPTION
D:\PROGRAM FILES (X86)\MICROSOFT VISUAL STUDIO 11.0\VC\INCLUDE\XSTDDEF
D:\PROGRAM FILES (X86)\MICROSOFT VISUAL STUDIO 11.0\VC\INCLUDE\CSTDDEF
D:\PROGRAM FILES (X86)\MICROSOFT VISUAL STUDIO 11.0\VC\INCLUDE\STDDEF.H
D:\PROGRAM FILES (X86)\MICROSOFT VISUAL STUDIO 11.0\VC\INCLUDE\EH.H
D:\PROGRAM FILES (X86)\MICROSOFT VISUAL STUDIO 11.0\VC\INCLUDE\MALLOC.H
D:\PROGRAM FILES (X86)\MICROSOFT VISUAL STUDIO 11.0\VC\INCLUDE\XSTRING
D:\PROGRAM FILES (X86)\MICROSOFT VISUAL STUDIO 11.0\VC\INCLUDE\XMEMORY0
D:\PROGRAM FILES (X86)\MICROSOFT VISUAL STUDIO 11.0\VC\INCLUDE\LIMITS
D:\PROGRAM FILES (X86)\MICROSOFT VISUAL STUDIO 11.0\VC\INCLUDE\YMATH.H
D:\PROGRAM FILES (X86)\MICROSOFT VISUAL STUDIO 11.0\VC\INCLUDE\CFLOAT
D:\PROGRAM FILES (X86)\MICROSOFT VISUAL STUDIO 11.0\VC\INCLUDE\FLOAT.H
D:\PROGRAM FILES (X86)\MICROSOFT VISUAL STUDIO 11.0\VC\INCLUDE\CRTWRN.H
D:\PROGRAM FILES (X86)\MICROSOFT VISUAL STUDIO 11.0\VC\INCLUDE\CWCHAR
D:\PROGRAM FILES (X86)\MICROSOFT VISUAL STUDIO 11.0\VC\INCLUDE\WCHAR.H
D:\PROGRAM FILES (X86)\MICROSOFT VISUAL STUDIO 11.0\VC\INCLUDE\WTIME.INL
D:\PROGRAM FILES (X86)\MICROSOFT VISUAL STUDIO 11.0\VC\INCLUDE\NEW
D:\PROGRAM FILES (X86)\MICROSOFT VISUAL STUDIO 11.0\VC\INCLUDE\XUTILITY
D:\PROGRAM FILES (X86)\MICROSOFT VISUAL STUDIO 11.0\VC\INCLUDE\UTILITY
D:\PROGRAM FILES (X86)\MICROSOFT VISUAL STUDIO 11.0\VC\INCLUDE\IOSFWD
D:\PROGRAM FILES (X86)\MICROSOFT VISUAL STUDIO 11.0\VC\INCLUDE\CRTDBG.H
D:\PROGRAM FILES (X86)\MICROSOFT VISUAL STUDIO 11.0\VC\INCLUDE\TYPE_TRAITS
D:\PROGRAM FILES (X86)\MICROSOFT VISUAL STUDIO 11.0\VC\INCLUDE\XREFWRAP
D:\PROGRAM FILES (X86)\MICROSOFT VISUAL STUDIO 11.0\VC\INCLUDE\XATOMIC0.H
D:\PROGRAM FILES (X86)\MICROSOFT VISUAL STUDIO 11.0\VC\INCLUDE\INTRIN.H
D:\PROGRAM FILES (X86)\MICROSOFT VISUAL STUDIO 11.0\VC\INCLUDE\SETJMP.H
D:\PROGRAM FILES (X86)\MICROSOFT VISUAL STUDIO 11.0\VC\INCLUDE\IMMINTRIN.H
D:\PROGRAM FILES (X86)\MICROSOFT VISUAL STUDIO 11.0\VC\INCLUDE\WMMINTRIN.H
D:\PROGRAM FILES (X86)\MICROSOFT VISUAL STUDIO 11.0\VC\INCLUDE\NMMINTRIN.H
D:\PROGRAM FILES (X86)\MICROSOFT VISUAL STUDIO 11.0\VC\INCLUDE\SMMINTRIN.H
D:\PROGRAM FILES (X86)\MICROSOFT VISUAL STUDIO 11.0\VC\INCLUDE\TMMINTRIN.H
D:\PROGRAM FILES (X86)\MICROSOFT VISUAL STUDIO 11.0\VC\INCLUDE\PMMINTRIN.H
D:\PROGRAM FILES (X86)\MICROSOFT VISUAL STUDIO 11.0\VC\INCLUDE\EMMINTRIN.H
D:\PROGRAM FILES (X86)\MICROSOFT VISUAL STUDIO 11.0\VC\INCLUDE\XMMINTRIN.H
D:\PROGRAM FILES (X86)\MICROSOFT VISUAL STUDIO 11.0\VC\INCLUDE\MMINTRIN.H
D:\PROGRAM FILES (X86)\MICROSOFT VISUAL STUDIO 11.0\VC\INCLUDE\AMMINTRIN.H
D:\PROGRAM FILES (X86)\MICROSOFT VISUAL STUDIO 11.0\VC\INCLUDE\MM3DNOW.H
D:\PROGRAM FILES (X86)\MICROSOFT VISUAL STUDIO 11.0\VC\INCLUDE\TYPEINFO
D:\PROGRAM FILES (X86)\MICROSOFT VISUAL STUDIO 11.0\VC\INCLUDE\XLOCINFO
D:\PROGRAM FILES (X86)\MICROSOFT VISUAL STUDIO 11.0\VC\INCLUDE\XLOCINFO.H
D:\PROGRAM FILES (X86)\MICROSOFT VISUAL STUDIO 11.0\VC\INCLUDE\CTYPE.H
D:\PROGRAM FILES (X86)\MICROSOFT VISUAL STUDIO 11.0\VC\INCLUDE\LOCALE.H
D:\PROGRAM FILES (X86)\MICROSOFT VISUAL STUDIO 11.0\VC\INCLUDE\XDEBUG
D:\PROGRAM FILES (X86)\MICROSOFT VISUAL STUDIO 11.0\VC\INCLUDE\XFACET
D:\PROGRAM FILES (X86)\MICROSOFT VISUAL STUDIO 11.0\VC\INCLUDE\SYSTEM_ERROR
D:\PROGRAM FILES (X86)\MICROSOFT VISUAL STUDIO 11.0\VC\INCLUDE\CERRNO
D:\PROGRAM FILES (X86)\MICROSOFT VISUAL STUDIO 11.0\VC\INCLUDE\ERRNO.H
D:\PROGRAM FILES (X86)\MICROSOFT VISUAL STUDIO 11.0\VC\INCLUDE\SHARE.H
D:\PROGRAM FILES (X86)\MICROSOFT VISUAL STUDIO 11.0\VC\INCLUDE\VECTOR
D:\PROGRAM FILES (X86)\MICROSOFT VISUAL STUDIO 11.0\VC\INCLUDE\XMEMORY
D:\PROGRAM FILES (X86)\MICROSOFT VISUAL STUDIO 11.0\VC\INCLUDE\CTIME
D:\PROGRAM FILES (X86)\MICROSOFT VISUAL STUDIO 11.0\VC\INCLUDE\TIME.H
D:\PROGRAM FILES (X86)\MICROSOFT VISUAL STUDIO 11.0\VC\INCLUDE\TIME.INL
D:\PROGRAM FILES (X86)\MICROSOFT VISUAL STUDIO 11.0\VC\INCLUDE\MAP
D:\PROGRAM FILES (X86)\MICROSOFT VISUAL STUDIO 11.0\VC\INCLUDE\XTREE
D:\PROGRAM FILES (X86)\MICROSOFT VISUAL STUDIO 11.0\VC\INCLUDE\SSTREAM
D:\PROJECTS\_C++\AEDA\P1 - VINHOS\UVA.H
D:\PROJECTS\_C++\AEDA\P1 - VINHOS\UTILIDADES.H
D:\PROGRAM FILES (X86)\MICROSOFT VISUAL STUDIO 11.0\VC\INCLUDE\IOSTREAM
^D:\PROJECTS\_C++\AEDA\P1 - VINHOS\PRODUTOR.CPP
D:\PROJECTS\_C++\AEDA\P1 - VINHOS\PRODUTOR.H
D:\PROGRAM FILES (X86)\MICROSOFT VISUAL STUDIO 11.0\VC\INCLUDE\STRING
D:\PROGRAM FILES (X86)\MICROSOFT VISUAL STUDIO 11.0\VC\INCLUDE\ITERATOR
D:\PROGRAM FILES (X86)\MICROSOFT VISUAL STUDIO 11.0\VC\INCLUDE\ISTREAM
D:\PROGRAM FILES (X86)\MICROSOFT VISUAL STUDIO 11.0\VC\INCLUDE\OSTREAM
D:\PROGRAM FILES (X86)\MICROSOFT VISUAL STUDIO 11.0\VC\INCLUDE\IOS
D:\PROGRAM FILES (X86)\MICROSOFT VISUAL STUDIO 11.0\VC\INCLUDE\XLOCNUM
D:\PROGRAM FILES (X86)\MICROSOFT VISUAL STUDIO 11.0\VC\INCLUDE\CLIMITS
D:\PROGRAM FILES (X86)\MICROSOFT VISUAL STUDIO 11.0\VC\INCLUDE\YVALS.H
D:\PROGRAM FILES (X86)\MICROSOFT VISUAL STUDIO 11.0\VC\INCLUDE\XKEYCHECK.H
D:\PROGRAM FILES (X86)\MICROSOFT VISUAL STUDIO 11.0\VC\INCLUDE\CRTDEFS.H
D:\PROGRAM FILES (X86)\MICROSOFT VISUAL STUDIO 11.0\VC\INCLUDE\SAL.H
D:\PROGRAM FILES (X86)\MICROSOFT VISUAL STUDIO 11.0\VC\INCLUDE\CONCURRENCYSAL.H
D:\PROGRAM FILES (X86)\MICROSOFT VISUAL STUDIO 11.0\VC\INCLUDE\VADEFS.H
D:\PROGRAM FILES (X86)\MICROSOFT VISUAL STUDIO 11.0\VC\INCLUDE\USE_ANSI.H
D:\PROGRAM FILES (X86)\MICROSOFT VISUAL STUDIO 11.0\VC\INCLUDE\LIMITS.H
D:\PROGRAM FILES (X86)\MICROSOFT VISUAL STUDIO 11.0\VC\INCLUDE\CMATH
D:\PROGRAM FILES (X86)\MICROSOFT VISUAL STUDIO 11.0\VC\INCLUDE\MATH.H
D:\PROGRAM FILES (X86)\MICROSOFT VISUAL STUDIO 11.0\VC\INCLUDE\XTGMATH.H
D:\PROGRAM FILES (X86)\MICROSOFT VISUAL STUDIO 11.0\VC\INCLUDE\XTR1COMMON
D:\PROGRAM FILES (X86)\MICROSOFT VISUAL STUDIO 11.0\VC\INCLUDE\CSTDIO
D:\PROGRAM FILES (X86)\MICROSOFT VISUAL STUDIO 11.0\VC\INCLUDE\STDIO.H
D:\PROGRAM FILES (X86)\MICROSOFT VISUAL STUDIO 11.0\VC\INCLUDE\SWPRINTF.INL
D:\PROGRAM FILES (X86)\MICROSOFT VISUAL STUDIO 11.0\VC\INCLUDE\CSTDLIB
D:\PROGRAM FILES (X86)\MICROSOFT VISUAL STUDIO 11.0\VC\INCLUDE\STDLIB.H
D:\PROGRAM FILES (X86)\MICROSOFT VISUAL STUDIO 11.0\VC\INCLUDE\STREAMBUF
D:\PROGRAM FILES (X86)\MICROSOFT VISUAL STUDIO 11.0\VC\INCLUDE\XIOSBASE
D:\PROGRAM FILES (X86)\MICROSOFT VISUAL STUDIO 11.0\VC\INCLUDE\XLOCALE
D:\PROGRAM FILES (X86)\MICROSOFT VISUAL STUDIO 11.0\VC\INCLUDE\CSTRING
D:\PROGRAM FILES (X86)\MICROSOFT VISUAL STUDIO 11.0\VC\INCLUDE\STRING.H
D:\PROGRAM FILES (X86)\MICROSOFT VISUAL STUDIO 11.0\VC\INCLUDE\STDEXCEPT
D:\PROGRAM FILES (X86)\MICROSOFT VISUAL STUDIO 11.0\VC\INCLUDE\EXCEPTION
D:\PROGRAM FILES (X86)\MICROSOFT VISUAL STUDIO 11.0\VC\INCLUDE\XSTDDEF
D:\PROGRAM FILES (X86)\MICROSOFT VISUAL STUDIO 11.0\VC\INCLUDE\CSTDDEF
D:\PROGRAM FILES (X86)\MICROSOFT VISUAL STUDIO 11.0\VC\INCLUDE\STDDEF.H
D:\PROGRAM FILES (X86)\MICROSOFT VISUAL STUDIO 11.0\VC\INCLUDE\EH.H
D:\PROGRAM FILES (X86)\MICROSOFT VISUAL STUDIO 11.0\VC\INCLUDE\MALLOC.H
D:\PROGRAM FILES (X86)\MICROSOFT VISUAL STUDIO 11.0\VC\INCLUDE\XSTRING
D:\PROGRAM FILES (X86)\MICROSOFT VISUAL STUDIO 11.0\VC\INCLUDE\XMEMORY0
D:\PROGRAM FILES (X86)\MICROSOFT VISUAL STUDIO 11.0\VC\INCLUDE\LIMITS
D:\PROGRAM FILES (X86)\MICROSOFT VISUAL STUDIO 11.0\VC\INCLUDE\YMATH.H
D:\PROGRAM FILES (X86)\MICROSOFT VISUAL STUDIO 11.0\VC\INCLUDE\CFLOAT
D:\PROGRAM FILES (X86)\MICROSOFT VISUAL STUDIO 11.0\VC\INCLUDE\FLOAT.H
D:\PROGRAM FILES (X86)\MICROSOFT VISUAL STUDIO 11.0\VC\INCLUDE\CRTWRN.H
D:\PROGRAM FILES (X86)\MICROSOFT VISUAL STUDIO 11.0\VC\INCLUDE\CWCHAR
D:\PROGRAM FILES (X86)\MICROSOFT VISUAL STUDIO 11.0\VC\INCLUDE\WCHAR.H
D:\PROGRAM FILES (X86)\MICROSOFT VISUAL STUDIO 11.0\VC\INCLUDE\WTIME.INL
D:\PROGRAM FILES (X86)\MICROSOFT VISUAL STUDIO 11.0\VC\INCLUDE\NEW
D:\PROGRAM FILES (X86)\MICROSOFT VISUAL STUDIO 11.0\VC\INCLUDE\XUTILITY
D:\PROGRAM FILES (X86)\MICROSOFT VISUAL STUDIO 11.0\VC\INCLUDE\UTILITY
D:\PROGRAM FILES (X86)\MICROSOFT VISUAL STUDIO 11.0\VC\INCLUDE\IOSFWD
D:\PROGRAM FILES (X86)\MICROSOFT VISUAL STUDIO 11.0\VC\INCLUDE\CRTDBG.H
D:\PROGRAM FILES (X86)\MICROSOFT VISUAL STUDIO 11.0\VC\INCLUDE\TYPE_TRAITS
D:\PROGRAM FILES (X86)\MICROSOFT VISUAL STUDIO 11.0\VC\INCLUDE\XREFWRAP
D:\PROGRAM FILES (X86)\MICROSOFT VISUAL STUDIO 11.0\VC\INCLUDE\XATOMIC0.H
D:\PROGRAM FILES (X86)\MICROSOFT VISUAL STUDIO 11.0\VC\INCLUDE\INTRIN.H
D:\PROGRAM FILES (X86)\MICROSOFT VISUAL STUDIO 11.0\VC\INCLUDE\SETJMP.H
D:\PROGRAM FILES (X86)\MICROSOFT VISUAL STUDIO 11.0\VC\INCLUDE\IMMINTRIN.H
D:\PROGRAM FILES (X86)\MICROSOFT VISUAL STUDIO 11.0\VC\INCLUDE\WMMINTRIN.H
D:\PROGRAM FILES (X86)\MICROSOFT VISUAL STUDIO 11.0\VC\INCLUDE\NMMINTRIN.H
D:\PROGRAM FILES (X86)\MICROSOFT VISUAL STUDIO 11.0\VC\INCLUDE\SMMINTRIN.H
D:\PROGRAM FILES (X86)\MICROSOFT VISUAL STUDIO 11.0\VC\INCLUDE\TMMINTRIN.H
D:\PROGRAM FILES (X86)\MICROSOFT VISUAL STUDIO 11.0\VC\INCLUDE\PMMINTRIN.H
D:\PROGRAM FILES (X86)\MICROSOFT VISUAL STUDIO 11.0\VC\INCLUDE\EMMINTRIN.H
D:\PROGRAM FILES (X86)\MICROSOFT VISUAL STUDIO 11.0\VC\INCLUDE\XMMINTRIN.H
D:\PROGRAM FILES (X86)\MICROSOFT VISUAL STUDIO 11.0\VC\INCLUDE\MMINTRIN.H
D:\PROGRAM FILES (X86)\MICROSOFT VISUAL STUDIO 11.0\VC\INCLUDE\AMMINTRIN.H
D:\PROGRAM FILES (X86)\MICROSOFT VISUAL STUDIO 11.0\VC\INCLUDE\MM3DNOW.H
D:\PROGRAM FILES (X86)\MICROSOFT VISUAL STUDIO 11.0\VC\INCLUDE\TYPEINFO
D:\PROGRAM FILES (X86)\MICROSOFT VISUAL STUDIO 11.0\VC\INCLUDE\XLOCINFO
D:\PROGRAM FILES (X86)\MICROSOFT VISUAL STUDIO 11.0\VC\INCLUDE\XLOCINFO.H
D:\PROGRAM FILES (X86)\MICROSOFT VISUAL STUDIO 11.0\VC\INCLUDE\CTYPE.H
D:\PROGRAM FILES (X86)\MICROSOFT VISUAL STUDIO 11.0\VC\INCLUDE\LOCALE.H
D:\PROGRAM FILES (X86)\MICROSOFT VISUAL STUDIO 11.0\VC\INCLUDE\XDEBUG
D:\PROGRAM FILES (X86)\MICROSOFT VISUAL STUDIO 11.0\VC\INCLUDE\XFACET
D:\PROGRAM FILES (X86)\MICROSOFT VISUAL STUDIO 11.0\VC\INCLUDE\SYSTEM_ERROR
D:\PROGRAM FILES (X86)\MICROSOFT VISUAL STUDIO 11.0\VC\INCLUDE\CERRNO
D:\PROGRAM FILES (X86)\MICROSOFT VISUAL STUDIO 11.0\VC\INCLUDE\ERRNO.H
D:\PROGRAM FILES (X86)\MICROSOFT VISUAL STUDIO 11.0\VC\INCLUDE\SHARE.H
D:\PROGRAM FILES (X86)\MICROSOFT VISUAL STUDIO 11.0\VC\INCLUDE\VECTOR
D:\PROGRAM FILES (X86)\MICROSOFT VISUAL STUDIO 11.0\VC\INCLUDE\XMEMORY
D:\PROJECTS\_C++\AEDA\P1 - VINHOS\PRODUTO.H
D:\PROGRAM FILES (X86)\MICROSOFT VISUAL STUDIO 11.0\VC\INCLUDE\CTIME
D:\PROGRAM FILES (X86)\MICROSOFT VISUAL STUDIO 11.0\VC\INCLUDE\TIME.H
D:\PROGRAM FILES (X86)\MICROSOFT VISUAL STUDIO 11.0\VC\INCLUDE\TIME.INL
D:\PROGRAM FILES (X86)\MICROSOFT VISUAL STUDIO 11.0\VC\INCLUDE\MAP
D:\PROGRAM FILES (X86)\MICROSOFT VISUAL STUDIO 11.0\VC\INCLUDE\XTREE
D:\PROGRAM FILES (X86)\MICROSOFT VISUAL STUDIO 11.0\VC\INCLUDE\SSTREAM
D:\PROJECTS\_C++\AEDA\P1 - VINHOS\UVA.H
D:\PROJECTS\_C++\AEDA\P1 - VINHOS\UTILIDADES.H
D:\PROGRAM FILES (X86)\MICROSOFT VISUAL STUDIO 11.0\VC\INCLUDE\IOSTREAM
^D:\PROJECTS\_C++\AEDA\P1 - VINHOS\CLIENTE.CPP
D:\PROGRAM FILES (X86)\MICROSOFT VISUAL STUDIO 11.0\COMMON7\IDE\MSPDBSRV.EXE
D:\PROJECTS\_C++\AEDA\P1 - VINHOS\CLIENTE.H
D:\PROGRAM FILES (X86)\MICROSOFT VISUAL STUDIO 11.0\VC\INCLUDE\STRING
D:\PROGRAM FILES (X86)\MICROSOFT VISUAL STUDIO 11.0\VC\INCLUDE\ITERATOR
D:\PROGRAM FILES (X86)\MICROSOFT VISUAL STUDIO 11.0\VC\INCLUDE\ISTREAM
D:\PROGRAM FILES (X86)\MICROSOFT VISUAL STUDIO 11.0\VC\INCLUDE\OSTREAM
D:\PROGRAM FILES (X86)\MICROSOFT VISUAL STUDIO 11.0\VC\INCLUDE\IOS
D:\PROGRAM FILES (X86)\MICROSOFT VISUAL STUDIO 11.0\VC\INCLUDE\XLOCNUM
D:\PROGRAM FILES (X86)\MICROSOFT VISUAL STUDIO 11.0\VC\INCLUDE\CLIMITS
D:\PROGRAM FILES (X86)\MICROSOFT VISUAL STUDIO 11.0\VC\INCLUDE\YVALS.H
D:\PROGRAM FILES (X86)\MICROSOFT VISUAL STUDIO 11.0\VC\INCLUDE\XKEYCHECK.H
D:\PROGRAM FILES (X86)\MICROSOFT VISUAL STUDIO 11.0\VC\INCLUDE\CRTDEFS.H
D:\PROGRAM FILES (X86)\MICROSOFT VISUAL STUDIO 11.0\VC\INCLUDE\SAL.H
D:\PROGRAM FILES (X86)\MICROSOFT VISUAL STUDIO 11.0\VC\INCLUDE\CONCURRENCYSAL.H
D:\PROGRAM FILES (X86)\MICROSOFT VISUAL STUDIO 11.0\VC\INCLUDE\VADEFS.H
D:\PROGRAM FILES (X86)\MICROSOFT VISUAL STUDIO 11.0\VC\INCLUDE\USE_ANSI.H
D:\PROGRAM FILES (X86)\MICROSOFT VISUAL STUDIO 11.0\VC\INCLUDE\LIMITS.H
D:\PROGRAM FILES (X86)\MICROSOFT VISUAL STUDIO 11.0\VC\INCLUDE\CMATH
D:\PROGRAM FILES (X86)\MICROSOFT VISUAL STUDIO 11.0\VC\INCLUDE\MATH.H
D:\PROGRAM FILES (X86)\MICROSOFT VISUAL STUDIO 11.0\VC\INCLUDE\XTGMATH.H
D:\PROGRAM FILES (X86)\MICROSOFT VISUAL STUDIO 11.0\VC\INCLUDE\XTR1COMMON
D:\PROGRAM FILES (X86)\MICROSOFT VISUAL STUDIO 11.0\VC\INCLUDE\CSTDIO
D:\PROGRAM FILES (X86)\MICROSOFT VISUAL STUDIO 11.0\VC\INCLUDE\STDIO.H
D:\PROGRAM FILES (X86)\MICROSOFT VISUAL STUDIO 11.0\VC\INCLUDE\SWPRINTF.INL
D:\PROGRAM FILES (X86)\MICROSOFT VISUAL STUDIO 11.0\VC\INCLUDE\CSTDLIB
D:\PROGRAM FILES (X86)\MICROSOFT VISUAL STUDIO 11.0\VC\INCLUDE\STDLIB.H
D:\PROGRAM FILES (X86)\MICROSOFT VISUAL STUDIO 11.0\VC\INCLUDE\STREAMBUF
D:\PROGRAM FILES (X86)\MICROSOFT VISUAL STUDIO 11.0\VC\INCLUDE\XIOSBASE
D:\PROGRAM FILES (X86)\MICROSOFT VISUAL STUDIO 11.0\VC\INCLUDE\XLOCALE
D:\PROGRAM FILES (X86)\MICROSOFT VISUAL STUDIO 11.0\VC\INCLUDE\CSTRING
D:\PROGRAM FILES (X86)\MICROSOFT VISUAL STUDIO 11.0\VC\INCLUDE\STRING.H
D:\PROGRAM FILES (X86)\MICROSOFT VISUAL STUDIO 11.0\VC\INCLUDE\STDEXCEPT
D:\PROGRAM FILES (X86)\MICROSOFT VISUAL STUDIO 11.0\VC\INCLUDE\EXCEPTION
D:\PROGRAM FILES (X86)\MICROSOFT VISUAL STUDIO 11.0\VC\INCLUDE\XSTDDEF
D:\PROGRAM FILES (X86)\MICROSOFT VISUAL STUDIO 11.0\VC\INCLUDE\CSTDDEF
D:\PROGRAM FILES (X86)\MICROSOFT VISUAL STUDIO 11.0\VC\INCLUDE\STDDEF.H
D:\PROGRAM FILES (X86)\MICROSOFT VISUAL STUDIO 11.0\VC\INCLUDE\EH.H
D:\PROGRAM FILES (X86)\MICROSOFT VISUAL STUDIO 11.0\VC\INCLUDE\MALLOC.H
D:\PROGRAM FILES (X86)\MICROSOFT VISUAL STUDIO 11.0\VC\INCLUDE\XSTRING
D:\PROGRAM FILES (X86)\MICROSOFT VISUAL STUDIO 11.0\VC\INCLUDE\XMEMORY0
D:\PROGRAM FILES (X86)\MICROSOFT VISUAL STUDIO 11.0\VC\INCLUDE\LIMITS
D:\PROGRAM FILES (X86)\MICROSOFT VISUAL STUDIO 11.0\VC\INCLUDE\YMATH.H
D:\PROGRAM FILES (X86)\MICROSOFT VISUAL STUDIO 11.0\VC\INCLUDE\CFLOAT
D:\PROGRAM FILES (X86)\MICROSOFT VISUAL STUDIO 11.0\VC\INCLUDE\FLOAT.H
D:\PROGRAM FILES (X86)\MICROSOFT VISUAL STUDIO 11.0\VC\INCLUDE\CRTWRN.H
D:\PROGRAM FILES (X86)\MICROSOFT VISUAL STUDIO 11.0\VC\INCLUDE\CWCHAR
D:\PROGRAM FILES (X86)\MICROSOFT VISUAL STUDIO 11.0\VC\INCLUDE\WCHAR.H
D:\PROGRAM FILES (X86)\MICROSOFT VISUAL STUDIO 11.0\VC\INCLUDE\WTIME.INL
D:\PROGRAM FILES (X86)\MICROSOFT VISUAL STUDIO 11.0\VC\INCLUDE\NEW
D:\PROGRAM FILES (X86)\MICROSOFT VISUAL STUDIO 11.0\VC\INCLUDE\XUTILITY
D:\PROGRAM FILES (X86)\MICROSOFT VISUAL STUDIO 11.0\VC\INCLUDE\UTILITY
D:\PROGRAM FILES (X86)\MICROSOFT VISUAL STUDIO 11.0\VC\INCLUDE\IOSFWD
D:\PROGRAM FILES (X86)\MICROSOFT VISUAL STUDIO 11.0\VC\INCLUDE\CRTDBG.H
D:\PROGRAM FILES (X86)\MICROSOFT VISUAL STUDIO 11.0\VC\INCLUDE\TYPE_TRAITS
D:\PROGRAM FILES (X86)\MICROSOFT VISUAL STUDIO 11.0\VC\INCLUDE\XREFWRAP
D:\PROGRAM FILES (X86)\MICROSOFT VISUAL STUDIO 11.0\VC\INCLUDE\XATOMIC0.H
D:\PROGRAM FILES (X86)\MICROSOFT VISUAL STUDIO 11.0\VC\INCLUDE\INTRIN.H
D:\PROGRAM FILES (X86)\MICROSOFT VISUAL STUDIO 11.0\VC\INCLUDE\SETJMP.H
D:\PROGRAM FILES (X86)\MICROSOFT VISUAL STUDIO 11.0\VC\INCLUDE\IMMINTRIN.H
D:\PROGRAM FILES (X86)\MICROSOFT VISUAL STUDIO 11.0\VC\INCLUDE\WMMINTRIN.H
D:\PROGRAM FILES (X86)\MICROSOFT VISUAL STUDIO 11.0\VC\INCLUDE\NMMINTRIN.H
D:\PROGRAM FILES (X86)\MICROSOFT VISUAL STUDIO 11.0\VC\INCLUDE\SMMINTRIN.H
D:\PROGRAM FILES (X86)\MICROSOFT VISUAL STUDIO 11.0\VC\INCLUDE\TMMINTRIN.H
D:\PROGRAM FILES (X86)\MICROSOFT VISUAL STUDIO 11.0\VC\INCLUDE\PMMINTRIN.H
D:\PROGRAM FILES (X86)\MICROSOFT VISUAL STUDIO 11.0\VC\INCLUDE\EMMINTRIN.H
D:\PROGRAM FILES (X86)\MICROSOFT VISUAL STUDIO 11.0\VC\INCLUDE\XMMINTRIN.H
D:\PROGRAM FILES (X86)\MICROSOFT VISUAL STUDIO 11.0\VC\INCLUDE\MMINTRIN.H
D:\PROGRAM FILES (X86)\MICROSOFT VISUAL STUDIO 11.0\VC\INCLUDE\AMMINTRIN.H
D:\PROGRAM FILES (X86)\MICROSOFT VISUAL STUDIO 11.0\VC\INCLUDE\MM3DNOW.H
D:\PROGRAM FILES (X86)\MICROSOFT VISUAL STUDIO 11.0\VC\INCLUDE\TYPEINFO
D:\PROGRAM FILES (X86)\MICROSOFT VISUAL STUDIO 11.0\VC\INCLUDE\XLOCINFO
D:\PROGRAM FILES (X86)\MICROSOFT VISUAL STUDIO 11.0\VC\INCLUDE\XLOCINFO.H
D:\PROGRAM FILES (X86)\MICROSOFT VISUAL STUDIO 11.0\VC\INCLUDE\CTYPE.H
D:\PROGRAM FILES (X86)\MICROSOFT VISUAL STUDIO 11.0\VC\INCLUDE\LOCALE.H
D:\PROGRAM FILES (X86)\MICROSOFT VISUAL STUDIO 11.0\VC\INCLUDE\XDEBUG
D:\PROGRAM FILES (X86)\MICROSOFT VISUAL STUDIO 11.0\VC\INCLUDE\XFACET
D:\PROGRAM FILES (X86)\MICROSOFT VISUAL STUDIO 11.0\VC\INCLUDE\SYSTEM_ERROR
D:\PROGRAM FILES (X86)\MICROSOFT VISUAL STUDIO 11.0\VC\INCLUDE\CERRNO
D:\PROGRAM FILES (X86)\MICROSOFT VISUAL STUDIO 11.0\VC\INCLUDE\ERRNO.H
D:\PROGRAM FILES (X86)\MICROSOFT VISUAL STUDIO 11.0\VC\INCLUDE\SHARE.H
D:\PROGRAM FILES (X86)\MICROSOFT VISUAL STUDIO 11.0\VC\INCLUDE\VECTOR
D:\PROGRAM FILES (X86)\MICROSOFT VISUAL STUDIO 11.0\VC\INCLUDE\XMEMORY
D:\PROJECTS\_C++\AEDA\P1 - VINHOS\UTILIDADES.H
D:\PROGRAM FILES (X86)\MICROSOFT VISUAL STUDIO 11.0\VC\INCLUDE\MAP
D:\PROGRAM FILES (X86)\MICROSOFT VISUAL STUDIO 11.0\VC\INCLUDE\XTREE
D:\PROGRAM FILES (X86)\MICROSOFT VISUAL STUDIO 11.0\VC\INCLUDE\IOSTREAM
D:\PROGRAM FILES (X86)\MICROSOFT VISUAL STUDIO 11.0\VC\INCLUDE\CTIME
D:\PROGRAM FILES (X86)\MICROSOFT VISUAL STUDIO 11.0\VC\INCLUDE\TIME.H
D:\PROGRAM FILES (X86)\MICROSOFT VISUAL STUDIO 11.0\VC\INCLUDE\TIME.INL
D:\PROGRAM FILES (X86)\MICROSOFT VISUAL STUDIO 11.0\VC\INCLUDE\SSTREAM
^D:\PROJECTS\_C++\AEDA\P1 - VINHOS\TRANSACAO.CPP
D:\PROJECTS\_C++\AEDA\P1 - VINHOS\TRANSACAO.H
D:\PROGRAM FILES (X86)\MICROSOFT VISUAL STUDIO 11.0\VC\INCLUDE\MAP
D:\PROGRAM FILES (X86)\MICROSOFT VISUAL STUDIO 11.0\VC\INCLUDE\XTREE
D:\PROGRAM FILES (X86)\MICROSOFT VISUAL STUDIO 11.0\VC\INCLUDE\XMEMORY
D:\PROGRAM FILES (X86)\MICROSOFT VISUAL STUDIO 11.0\VC\INCLUDE\XMEMORY0
D:\PROGRAM FILES (X86)\MICROSOFT VISUAL STUDIO 11.0\VC\INCLUDE\CSTDLIB
D:\PROGRAM FILES (X86)\MICROSOFT VISUAL STUDIO 11.0\VC\INCLUDE\YVALS.H
D:\PROGRAM FILES (X86)\MICROSOFT VISUAL STUDIO 11.0\VC\INCLUDE\XKEYCHECK.H
D:\PROGRAM FILES (X86)\MICROSOFT VISUAL STUDIO 11.0\VC\INCLUDE\CRTDEFS.H
D:\PROGRAM FILES (X86)\MICROSOFT VISUAL STUDIO 11.0\VC\INCLUDE\SAL.H
D:\PROGRAM FILES (X86)\MICROSOFT VISUAL STUDIO 11.0\VC\INCLUDE\CONCURRENCYSAL.H
D:\PROGRAM FILES (X86)\MICROSOFT VISUAL STUDIO 11.0\VC\INCLUDE\VADEFS.H
D:\PROGRAM FILES (X86)\MICROSOFT VISUAL STUDIO 11.0\VC\INCLUDE\USE_ANSI.H
D:\PROGRAM FILES (X86)\MICROSOFT VISUAL STUDIO 11.0\VC\INCLUDE\STDLIB.H
D:\PROGRAM FILES (X86)\MICROSOFT VISUAL STUDIO 11.0\VC\INCLUDE\LIMITS.H
D:\PROGRAM FILES (X86)\MICROSOFT VISUAL STUDIO 11.0\VC\INCLUDE\LIMITS
D:\PROGRAM FILES (X86)\MICROSOFT VISUAL STUDIO 11.0\VC\INCLUDE\YMATH.H
D:\PROGRAM FILES (X86)\MICROSOFT VISUAL STUDIO 11.0\VC\INCLUDE\CFLOAT
D:\PROGRAM FILES (X86)\MICROSOFT VISUAL STUDIO 11.0\VC\INCLUDE\FLOAT.H
D:\PROGRAM FILES (X86)\MICROSOFT VISUAL STUDIO 11.0\VC\INCLUDE\CRTWRN.H
D:\PROGRAM FILES (X86)\MICROSOFT VISUAL STUDIO 11.0\VC\INCLUDE\CLIMITS
D:\PROGRAM FILES (X86)\MICROSOFT VISUAL STUDIO 11.0\VC\INCLUDE\CMATH
D:\PROGRAM FILES (X86)\MICROSOFT VISUAL STUDIO 11.0\VC\INCLUDE\MATH.H
D:\PROGRAM FILES (X86)\MICROSOFT VISUAL STUDIO 11.0\VC\INCLUDE\XTGMATH.H
D:\PROGRAM FILES (X86)\MICROSOFT VISUAL STUDIO 11.0\VC\INCLUDE\XTR1COMMON
D:\PROGRAM FILES (X86)\MICROSOFT VISUAL STUDIO 11.0\VC\INCLUDE\CWCHAR
D:\PROGRAM FILES (X86)\MICROSOFT VISUAL STUDIO 11.0\VC\INCLUDE\WCHAR.H
D:\PROGRAM FILES (X86)\MICROSOFT VISUAL STUDIO 11.0\VC\INCLUDE\SWPRINTF.INL
D:\PROGRAM FILES (X86)\MICROSOFT VISUAL STUDIO 11.0\VC\INCLUDE\WTIME.INL
D:\PROGRAM FILES (X86)\MICROSOFT VISUAL STUDIO 11.0\VC\INCLUDE\XSTDDEF
D:\PROGRAM FILES (X86)\MICROSOFT VISUAL STUDIO 11.0\VC\INCLUDE\CSTDDEF
D:\PROGRAM FILES (X86)\MICROSOFT VISUAL STUDIO 11.0\VC\INCLUDE\STDDEF.H
D:\PROGRAM FILES (X86)\MICROSOFT VISUAL STUDIO 11.0\VC\INCLUDE\NEW
D:\PROGRAM FILES (X86)\MICROSOFT VISUAL STUDIO 11.0\VC\INCLUDE\EXCEPTION
D:\PROGRAM FILES (X86)\MICROSOFT VISUAL STUDIO 11.0\VC\INCLUDE\EH.H
D:\PROGRAM FILES (X86)\MICROSOFT VISUAL STUDIO 11.0\VC\INCLUDE\MALLOC.H
D:\PROGRAM FILES (X86)\MICROSOFT VISUAL STUDIO 11.0\VC\INCLUDE\STRING.H
D:\PROGRAM FILES (X86)\MICROSOFT VISUAL STUDIO 11.0\VC\INCLUDE\XUTILITY
D:\PROGRAM FILES (X86)\MICROSOFT VISUAL STUDIO 11.0\VC\INCLUDE\UTILITY
D:\PROGRAM FILES (X86)\MICROSOFT VISUAL STUDIO 11.0\VC\INCLUDE\IOSFWD
D:\PROGRAM FILES (X86)\MICROSOFT VISUAL STUDIO 11.0\VC\INCLUDE\CSTDIO
D:\PROGRAM FILES (X86)\MICROSOFT VISUAL STUDIO 11.0\VC\INCLUDE\STDIO.H
D:\PROGRAM FILES (X86)\MICROSOFT VISUAL STUDIO 11.0\VC\INCLUDE\CSTRING
D:\PROGRAM FILES (X86)\MICROSOFT VISUAL STUDIO 11.0\VC\INCLUDE\CRTDBG.H
D:\PROGRAM FILES (X86)\MICROSOFT VISUAL STUDIO 11.0\VC\INCLUDE\TYPE_TRAITS
D:\PROGRAM FILES (X86)\MICROSOFT VISUAL STUDIO 11.0\VC\INCLUDE\XREFWRAP
D:\PROGRAM FILES (X86)\MICROSOFT VISUAL STUDIO 11.0\VC\INCLUDE\XATOMIC0.H
D:\PROGRAM FILES (X86)\MICROSOFT VISUAL STUDIO 11.0\VC\INCLUDE\INTRIN.H
D:\PROGRAM FILES (X86)\MICROSOFT VISUAL STUDIO 11.0\VC\INCLUDE\SETJMP.H
D:\PROGRAM FILES (X86)\MICROSOFT VISUAL STUDIO 11.0\VC\INCLUDE\IMMINTRIN.H
D:\PROGRAM FILES (X86)\MICROSOFT VISUAL STUDIO 11.0\VC\INCLUDE\WMMINTRIN.H
D:\PROGRAM FILES (X86)\MICROSOFT VISUAL STUDIO 11.0\VC\INCLUDE\NMMINTRIN.H
D:\PROGRAM FILES (X86)\MICROSOFT VISUAL STUDIO 11.0\VC\INCLUDE\SMMINTRIN.H
D:\PROGRAM FILES (X86)\MICROSOFT VISUAL STUDIO 11.0\VC\INCLUDE\TMMINTRIN.H
D:\PROGRAM FILES (X86)\MICROSOFT VISUAL STUDIO 11.0\VC\INCLUDE\PMMINTRIN.H
D:\PROGRAM FILES (X86)\MICROSOFT VISUAL STUDIO 11.0\VC\INCLUDE\EMMINTRIN.H
D:\PROGRAM FILES (X86)\MICROSOFT VISUAL STUDIO 11.0\VC\INCLUDE\XMMINTRIN.H
D:\PROGRAM FILES (X86)\MICROSOFT VISUAL STUDIO 11.0\VC\INCLUDE\MMINTRIN.H
D:\PROGRAM FILES (X86)\MICROSOFT VISUAL STUDIO 11.0\VC\INCLUDE\AMMINTRIN.H
D:\PROGRAM FILES (X86)\MICROSOFT VISUAL STUDIO 11.0\VC\INCLUDE\MM3DNOW.H
D:\PROGRAM FILES (X86)\MICROSOFT VISUAL STUDIO 11.0\VC\INCLUDE\STDEXCEPT
D:\PROGRAM FILES (X86)\MICROSOFT VISUAL STUDIO 11.0\VC\INCLUDE\XSTRING
D:\PROGRAM FILES (X86)\MICROSOFT VISUAL STUDIO 11.0\VC\INCLUDE\CTIME
D:\PROGRAM FILES (X86)\MICROSOFT VISUAL STUDIO 11.0\VC\INCLUDE\TIME.H
D:\PROGRAM FILES (X86)\MICROSOFT VISUAL STUDIO 11.0\VC\INCLUDE\TIME.INL
D:\PROJECTS\_C++\AEDA\P1 - VINHOS\CLIENTE.H
D:\PROGRAM FILES (X86)\MICROSOFT VISUAL STUDIO 11.0\VC\INCLUDE\STRING
D:\PROGRAM FILES (X86)\MICROSOFT VISUAL STUDIO 11.0\VC\INCLUDE\ITERATOR
D:\PROGRAM FILES (X86)\MICROSOFT VISUAL STUDIO 11.0\VC\INCLUDE\ISTREAM
D:\PROGRAM FILES (X86)\MICROSOFT VISUAL STUDIO 11.0\VC\INCLUDE\OSTREAM
D:\PROGRAM FILES (X86)\MICROSOFT VISUAL STUDIO 11.0\VC\INCLUDE\IOS
D:\PROGRAM FILES (X86)\MICROSOFT VISUAL STUDIO 11.0\VC\INCLUDE\XLOCNUM
D:\PROGRAM FILES (X86)\MICROSOFT VISUAL STUDIO 11.0\VC\INCLUDE\STREAMBUF
D:\PROGRAM FILES (X86)\MICROSOFT VISUAL STUDIO 11.0\VC\INCLUDE\XIOSBASE
D:\PROGRAM FILES (X86)\MICROSOFT VISUAL STUDIO 11.0\VC\INCLUDE\XLOCALE
D:\PROGRAM FILES (X86)\MICROSOFT VISUAL STUDIO 11.0\VC\INCLUDE\TYPEINFO
D:\PROGRAM FILES (X86)\MICROSOFT VISUAL STUDIO 11.0\VC\INCLUDE\XLOCINFO
D:\PROGRAM FILES (X86)\MICROSOFT VISUAL STUDIO 11.0\VC\INCLUDE\XLOCINFO.H
D:\PROGRAM FILES (X86)\MICROSOFT VISUAL STUDIO 11.0\VC\INCLUDE\CTYPE.H
D:\PROGRAM FILES (X86)\MICROSOFT VISUAL STUDIO 11.0\VC\INCLUDE\LOCALE.H
D:\PROGRAM FILES (X86)\MICROSOFT VISUAL STUDIO 11.0\VC\INCLUDE\XDEBUG
D:\PROGRAM FILES (X86)\MICROSOFT VISUAL STUDIO 11.0\VC\INCLUDE\XFACET
D:\PROGRAM FILES (X86)\MICROSOFT VISUAL STUDIO 11.0\VC\INCLUDE\SYSTEM_ERROR
D:\PROGRAM FILES (X86)\MICROSOFT VISUAL STUDIO 11.0\VC\INCLUDE\CERRNO
D:\PROGRAM FILES (X86)\MICROSOFT VISUAL STUDIO 11.0\VC\INCLUDE\ERRNO.H
D:\PROGRAM FILES (X86)\MICROSOFT VISUAL STUDIO 11.0\VC\INCLUDE\SHARE.H
D:\PROGRAM FILES (X86)\MICROSOFT VISUAL STUDIO 11.0\VC\INCLUDE\VECTOR
D:\PROJECTS\_C++\AEDA\P1 - VINHOS\UTILIDADES.H
D:\PROGRAM FILES (X86)\MICROSOFT VISUAL STUDIO 11.0\VC\INCLUDE\IOSTREAM
D:\PROGRAM FILES (X86)\MICROSOFT VISUAL STUDIO 11.0\VC\INCLUDE\SSTREAM
D:\PROJECTS\_C++\AEDA\P1 - VINHOS\PRODUTOR.H
D:\PROJECTS\_C++\AEDA\P1 - VINHOS\PRODUTO.H
D:\PROJECTS\_C++\AEDA\P1 - VINHOS\UVA.H
D:\PROJECTS\_C++\AEDA\P1 - VINHOS\EMPRESATRANSPORTE.H
D:\PROGRAM FILES (X86)\MICROSOFT VISUAL STUDIO 11.0\VC\INCLUDE\FSTREAM
D:\PROGRAM FILES (X86)\MICROSOFT VISUAL STUDIO 11.0\VC\INCLUDE\CCTYPE
D:\PROGRAM FILES (X86)\MICROSOFT VISUAL STUDIO 11.0\VC\INCLUDE\LIST
D:\PROJECTS\_C++\AEDA\P1 - VINHOS\VIATURA.H
^D:\PROJECTS\_C++\AEDA\P1 - VINHOS\MAIN.CPP
D:\PROGRAM FILES (X86)\MICROSOFT VISUAL STUDIO 11.0\VC\INCLUDE\IOSTREAM
D:\PROGRAM FILES (X86)\MICROSOFT VISUAL STUDIO 11.0\VC\INCLUDE\ISTREAM
D:\PROGRAM FILES (X86)\MICROSOFT VISUAL STUDIO 11.0\VC\INCLUDE\OSTREAM
D:\PROGRAM FILES (X86)\MICROSOFT VISUAL STUDIO 11.0\VC\INCLUDE\IOS
D:\PROGRAM FILES (X86)\MICROSOFT VISUAL STUDIO 11.0\VC\INCLUDE\XLOCNUM
D:\PROGRAM FILES (X86)\MICROSOFT VISUAL STUDIO 11.0\VC\INCLUDE\CLIMITS
D:\PROGRAM FILES (X86)\MICROSOFT VISUAL STUDIO 11.0\VC\INCLUDE\YVALS.H
D:\PROGRAM FILES (X86)\MICROSOFT VISUAL STUDIO 11.0\VC\INCLUDE\XKEYCHECK.H
D:\PROGRAM FILES (X86)\MICROSOFT VISUAL STUDIO 11.0\VC\INCLUDE\CRTDEFS.H
D:\PROGRAM FILES (X86)\MICROSOFT VISUAL STUDIO 11.0\VC\INCLUDE\SAL.H
D:\PROGRAM FILES (X86)\MICROSOFT VISUAL STUDIO 11.0\VC\INCLUDE\CONCURRENCYSAL.H
D:\PROGRAM FILES (X86)\MICROSOFT VISUAL STUDIO 11.0\VC\INCLUDE\VADEFS.H
D:\PROGRAM FILES (X86)\MICROSOFT VISUAL STUDIO 11.0\VC\INCLUDE\USE_ANSI.H
D:\PROGRAM FILES (X86)\MICROSOFT VISUAL STUDIO 11.0\VC\INCLUDE\LIMITS.H
D:\PROGRAM FILES (X86)\MICROSOFT VISUAL STUDIO 11.0\VC\INCLUDE\CMATH
D:\PROGRAM FILES (X86)\MICROSOFT VISUAL STUDIO 11.0\VC\INCLUDE\MATH.H
D:\PROGRAM FILES (X86)\MICROSOFT VISUAL STUDIO 11.0\VC\INCLUDE\XTGMATH.H
D:\PROGRAM FILES (X86)\MICROSOFT VISUAL STUDIO 11.0\VC\INCLUDE\XTR1COMMON
D:\PROGRAM FILES (X86)\MICROSOFT VISUAL STUDIO 11.0\VC\INCLUDE\CSTDIO
D:\PROGRAM FILES (X86)\MICROSOFT VISUAL STUDIO 11.0\VC\INCLUDE\STDIO.H
D:\PROGRAM FILES (X86)\MICROSOFT VISUAL STUDIO 11.0\VC\INCLUDE\SWPRINTF.INL
D:\PROGRAM FILES (X86)\MICROSOFT VISUAL STUDIO 11.0\VC\INCLUDE\CSTDLIB
D:\PROGRAM FILES (X86)\MICROSOFT VISUAL STUDIO 11.0\VC\INCLUDE\STDLIB.H
D:\PROGRAM FILES (X86)\MICROSOFT VISUAL STUDIO 11.0\VC\INCLUDE\STREAMBUF
D:\PROGRAM FILES (X86)\MICROSOFT VISUAL STUDIO 11.0\VC\INCLUDE\XIOSBASE
D:\PROGRAM FILES (X86)\MICROSOFT VISUAL STUDIO 11.0\VC\INCLUDE\XLOCALE
D:\PROGRAM FILES (X86)\MICROSOFT VISUAL STUDIO 11.0\VC\INCLUDE\CSTRING
D:\PROGRAM FILES (X86)\MICROSOFT VISUAL STUDIO 11.0\VC\INCLUDE\STRING.H
D:\PROGRAM FILES (X86)\MICROSOFT VISUAL STUDIO 11.0\VC\INCLUDE\STDEXCEPT
D:\PROGRAM FILES (X86)\MICROSOFT VISUAL STUDIO 11.0\VC\INCLUDE\EXCEPTION
D:\PROGRAM FILES (X86)\MICROSOFT VISUAL STUDIO 11.0\VC\INCLUDE\XSTDDEF
D:\PROGRAM FILES (X86)\MICROSOFT VISUAL STUDIO 11.0\VC\INCLUDE\CSTDDEF
D:\PROGRAM FILES (X86)\MICROSOFT VISUAL STUDIO 11.0\VC\INCLUDE\STDDEF.H
D:\PROGRAM FILES (X86)\MICROSOFT VISUAL STUDIO 11.0\VC\INCLUDE\EH.H
D:\PROGRAM FILES (X86)\MICROSOFT VISUAL STUDIO 11.0\VC\INCLUDE\MALLOC.H
D:\PROGRAM FILES (X86)\MICROSOFT VISUAL STUDIO 11.0\VC\INCLUDE\XSTRING
D:\PROGRAM FILES (X86)\MICROSOFT VISUAL STUDIO 11.0\VC\INCLUDE\XMEMORY0
D:\PROGRAM FILES (X86)\MICROSOFT VISUAL STUDIO 11.0\VC\INCLUDE\LIMITS
D:\PROGRAM FILES (X86)\MICROSOFT VISUAL STUDIO 11.0\VC\INCLUDE\YMATH.H
D:\PROGRAM FILES (X86)\MICROSOFT VISUAL STUDIO 11.0\VC\INCLUDE\CFLOAT
D:\PROGRAM FILES (X86)\MICROSOFT VISUAL STUDIO 11.0\VC\INCLUDE\FLOAT.H
D:\PROGRAM FILES (X86)\MICROSOFT VISUAL STUDIO 11.0\VC\INCLUDE\CRTWRN.H
D:\PROGRAM FILES (X86)\MICROSOFT VISUAL STUDIO 11.0\VC\INCLUDE\CWCHAR
D:\PROGRAM FILES (X86)\MICROSOFT VISUAL STUDIO 11.0\VC\INCLUDE\WCHAR.H
D:\PROGRAM FILES (X86)\MICROSOFT VISUAL STUDIO 11.0\VC\INCLUDE\WTIME.INL
D:\PROGRAM FILES (X86)\MICROSOFT VISUAL STUDIO 11.0\VC\INCLUDE\NEW
D:\PROGRAM FILES (X86)\MICROSOFT VISUAL STUDIO 11.0\VC\INCLUDE\XUTILITY
D:\PROGRAM FILES (X86)\MICROSOFT VISUAL STUDIO 11.0\VC\INCLUDE\UTILITY
D:\PROGRAM FILES (X86)\MICROSOFT VISUAL STUDIO 11.0\VC\INCLUDE\IOSFWD
D:\PROGRAM FILES (X86)\MICROSOFT VISUAL STUDIO 11.0\VC\INCLUDE\CRTDBG.H
D:\PROGRAM FILES (X86)\MICROSOFT VISUAL STUDIO 11.0\VC\INCLUDE\TYPE_TRAITS
D:\PROGRAM FILES (X86)\MICROSOFT VISUAL STUDIO 11.0\VC\INCLUDE\XREFWRAP
D:\PROGRAM FILES (X86)\MICROSOFT VISUAL STUDIO 11.0\VC\INCLUDE\XATOMIC0.H
D:\PROGRAM FILES (X86)\MICROSOFT VISUAL STUDIO 11.0\VC\INCLUDE\INTRIN.H
D:\PROGRAM FILES (X86)\MICROSOFT VISUAL STUDIO 11.0\VC\INCLUDE\SETJMP.H
D:\PROGRAM FILES (X86)\MICROSOFT VISUAL STUDIO 11.0\VC\INCLUDE\IMMINTRIN.H
D:\PROGRAM FILES (X86)\MICROSOFT VISUAL STUDIO 11.0\VC\INCLUDE\WMMINTRIN.H
D:\PROGRAM FILES (X86)\MICROSOFT VISUAL STUDIO 11.0\VC\INCLUDE\NMMINTRIN.H
D:\PROGRAM FILES (X86)\MICROSOFT VISUAL STUDIO 11.0\VC\INCLUDE\SMMINTRIN.H
D:\PROGRAM FILES (X86)\MICROSOFT VISUAL STUDIO 11.0\VC\INCLUDE\TMMINTRIN.H
D:\PROGRAM FILES (X86)\MICROSOFT VISUAL STUDIO 11.0\VC\INCLUDE\PMMINTRIN.H
D:\PROGRAM FILES (X86)\MICROSOFT VISUAL STUDIO 11.0\VC\INCLUDE\EMMINTRIN.H
D:\PROGRAM FILES (X86)\MICROSOFT VISUAL STUDIO 11.0\VC\INCLUDE\XMMINTRIN.H
D:\PROGRAM FILES (X86)\MICROSOFT VISUAL STUDIO 11.0\VC\INCLUDE\MMINTRIN.H
D:\PROGRAM FILES (X86)\MICROSOFT VISUAL STUDIO 11.0\VC\INCLUDE\AMMINTRIN.H
D:\PROGRAM FILES (X86)\MICROSOFT VISUAL STUDIO 11.0\VC\INCLUDE\MM3DNOW.H
D:\PROGRAM FILES (X86)\MICROSOFT VISUAL STUDIO 11.0\VC\INCLUDE\TYPEINFO
D:\PROGRAM FILES (X86)\MICROSOFT VISUAL STUDIO 11.0\VC\INCLUDE\XLOCINFO
D:\PROGRAM FILES (X86)\MICROSOFT VISUAL STUDIO 11.0\VC\INCLUDE\XLOCINFO.H
D:\PROGRAM FILES (X86)\MICROSOFT VISUAL STUDIO 11.0\VC\INCLUDE\CTYPE.H
D:\PROGRAM FILES (X86)\MICROSOFT VISUAL STUDIO 11.0\VC\INCLUDE\LOCALE.H
D:\PROGRAM FILES (X86)\MICROSOFT VISUAL STUDIO 11.0\VC\INCLUDE\XDEBUG
D:\PROGRAM FILES (X86)\MICROSOFT VISUAL STUDIO 11.0\VC\INCLUDE\XFACET
D:\PROGRAM FILES (X86)\MICROSOFT VISUAL STUDIO 11.0\VC\INCLUDE\SYSTEM_ERROR
D:\PROGRAM FILES (X86)\MICROSOFT VISUAL STUDIO 11.0\VC\INCLUDE\CERRNO
D:\PROGRAM FILES (X86)\MICROSOFT VISUAL STUDIO 11.0\VC\INCLUDE\ERRNO.H
D:\PROGRAM FILES (X86)\MICROSOFT VISUAL STUDIO 11.0\VC\INCLUDE\SHARE.H
D:\PROGRAM FILES (X86)\MICROSOFT VISUAL STUDIO 11.0\VC\INCLUDE\SSTREAM
D:\PROGRAM FILES (X86)\MICROSOFT VISUAL STUDIO 11.0\VC\INCLUDE\STRING
D:\PROGRAM FILES (X86)\MICROSOFT VISUAL STUDIO 11.0\VC\INCLUDE\ITERATOR
D:\PROGRAM FILES (X86)\MICROSOFT VISUAL STUDIO 11.0\VC\INCLUDE\IOMANIP
D:\PROGRAM FILES (X86)\MICROSOFT VISUAL STUDIO 11.0\VC\INCLUDE\XLOCMON
D:\PROGRAM FILES (X86)\MICROSOFT VISUAL STUDIO 11.0\VC\INCLUDE\XLOCTIME
D:\PROGRAM FILES (X86)\MICROSOFT VISUAL STUDIO 11.0\VC\INCLUDE\CTIME
D:\PROGRAM FILES (X86)\MICROSOFT VISUAL STUDIO 11.0\VC\INCLUDE\TIME.H
D:\PROGRAM FILES (X86)\MICROSOFT VISUAL STUDIO 11.0\VC\INCLUDE\TIME.INL
D:\PROJECTS\_C++\AEDA\P1 - VINHOS\COOPERATIVA.H
D:\PROGRAM FILES (X86)\MICROSOFT VISUAL STUDIO 11.0\VC\INCLUDE\FSTREAM
D:\PROGRAM FILES (X86)\MICROSOFT VISUAL STUDIO 11.0\VC\INCLUDE\VECTOR
D:\PROGRAM FILES (X86)\MICROSOFT VISUAL STUDIO 11.0\VC\INCLUDE\XMEMORY
D:\PROGRAM FILES (X86)\MICROSOFT VISUAL STUDIO 11.0\VC\INCLUDE\CCTYPE
D:\PROGRAM FILES (X86)\MICROSOFT VISUAL STUDIO 11.0\VC\INCLUDE\UNORDERED_SET
D:\PROGRAM FILES (X86)\MICROSOFT VISUAL STUDIO 11.0\VC\INCLUDE\XHASH
D:\PROGRAM FILES (X86)\MICROSOFT VISUAL STUDIO 11.0\VC\INCLUDE\LIST
D:\PROJECTS\_C++\AEDA\P1 - VINHOS\PRODUTO.H
D:\PROGRAM FILES (X86)\MICROSOFT VISUAL STUDIO 11.0\VC\INCLUDE\MAP
D:\PROGRAM FILES (X86)\MICROSOFT VISUAL STUDIO 11.0\VC\INCLUDE\XTREE
D:\PROJECTS\_C++\AEDA\P1 - VINHOS\UVA.H
D:\PROJECTS\_C++\AEDA\P1 - VINHOS\UTILIDADES.H
D:\PROJECTS\_C++\AEDA\P1 - VINHOS\PRODUTOR.H
D:\PROJECTS\_C++\AEDA\P1 - VINHOS\CLIENTE.H
D:\PROJECTS\_C++\AEDA\P1 - VINHOS\TRANSACAO.H
D:\PROJECTS\_C++\AEDA\P1 - VINHOS\EMPRESATRANSPORTE.H
D:\PROJECTS\_C++\AEDA\P1 - VINHOS\VIATURA.H
D:\PROJECTS\_C++\AEDA\P1 - VINHOS\BST.H
D:\PROGRAM FILES (X86)\MICROSOFT VISUAL STUDIO 11.0\VC\INCLUDE\STACK
D:\PROGRAM FILES (X86)\MICROSOFT VISUAL STUDIO 11.0\VC\INCLUDE\DEQUE
D:\PROGRAM FILES (X86)\MICROSOFT VISUAL STUDIO 11.0\VC\INCLUDE\QUEUE
D:\PROGRAM FILES (X86)\MICROSOFT VISUAL STUDIO 11.0\VC\INCLUDE\ALGORITHM
^D:\PROJECTS\_C++\AEDA\P1 - VINHOS\VIATURA.CPP
D:\PROJECTS\_C++\AEDA\P1 - VINHOS\VIATURA.H
D:\PROGRAM FILES (X86)\MICROSOFT VISUAL STUDIO 11.0\VC\INCLUDE\IOSTREAM
D:\PROGRAM FILES (X86)\MICROSOFT VISUAL STUDIO 11.0\VC\INCLUDE\ISTREAM
D:\PROGRAM FILES (X86)\MICROSOFT VISUAL STUDIO 11.0\VC\INCLUDE\OSTREAM
D:\PROGRAM FILES (X86)\MICROSOFT VISUAL STUDIO 11.0\VC\INCLUDE\IOS
D:\PROGRAM FILES (X86)\MICROSOFT VISUAL STUDIO 11.0\VC\INCLUDE\XLOCNUM
D:\PROGRAM FILES (X86)\MICROSOFT VISUAL STUDIO 11.0\VC\INCLUDE\CLIMITS
D:\PROGRAM FILES (X86)\MICROSOFT VISUAL STUDIO 11.0\VC\INCLUDE\YVALS.H
D:\PROGRAM FILES (X86)\MICROSOFT VISUAL STUDIO 11.0\VC\INCLUDE\XKEYCHECK.H
D:\PROGRAM FILES (X86)\MICROSOFT VISUAL STUDIO 11.0\VC\INCLUDE\CRTDEFS.H
D:\PROGRAM FILES (X86)\MICROSOFT VISUAL STUDIO 11.0\VC\INCLUDE\SAL.H
D:\PROGRAM FILES (X86)\MICROSOFT VISUAL STUDIO 11.0\VC\INCLUDE\CONCURRENCYSAL.H
D:\PROGRAM FILES (X86)\MICROSOFT VISUAL STUDIO 11.0\VC\INCLUDE\VADEFS.H
D:\PROGRAM FILES (X86)\MICROSOFT VISUAL STUDIO 11.0\VC\INCLUDE\USE_ANSI.H
D:\PROGRAM FILES (X86)\MICROSOFT VISUAL STUDIO 11.0\VC\INCLUDE\LIMITS.H
D:\PROGRAM FILES (X86)\MICROSOFT VISUAL STUDIO 11.0\VC\INCLUDE\CMATH
D:\PROGRAM FILES (X86)\MICROSOFT VISUAL STUDIO 11.0\VC\INCLUDE\MATH.H
D:\PROGRAM FILES (X86)\MICROSOFT VISUAL STUDIO 11.0\VC\INCLUDE\XTGMATH.H
D:\PROGRAM FILES (X86)\MICROSOFT VISUAL STUDIO 11.0\VC\INCLUDE\XTR1COMMON
D:\PROGRAM FILES (X86)\MICROSOFT VISUAL STUDIO 11.0\VC\INCLUDE\CSTDIO
D:\PROGRAM FILES (X86)\MICROSOFT VISUAL STUDIO 11.0\VC\INCLUDE\STDIO.H
D:\PROGRAM FILES (X86)\MICROSOFT VISUAL STUDIO 11.0\VC\INCLUDE\SWPRINTF.INL
D:\PROGRAM FILES (X86)\MICROSOFT VISUAL STUDIO 11.0\VC\INCLUDE\CSTDLIB
D:\PROGRAM FILES (X86)\MICROSOFT VISUAL STUDIO 11.0\VC\INCLUDE\STDLIB.H
D:\PROGRAM FILES (X86)\MICROSOFT VISUAL STUDIO 11.0\VC\INCLUDE\STREAMBUF
D:\PROGRAM FILES (X86)\MICROSOFT VISUAL STUDIO 11.0\VC\INCLUDE\XIOSBASE
D:\PROGRAM FILES (X86)\MICROSOFT VISUAL STUDIO 11.0\VC\INCLUDE\XLOCALE
D:\PROGRAM FILES (X86)\MICROSOFT VISUAL STUDIO 11.0\VC\INCLUDE\CSTRING
D:\PROGRAM FILES (X86)\MICROSOFT VISUAL STUDIO 11.0\VC\INCLUDE\STRING.H
D:\PROGRAM FILES (X86)\MICROSOFT VISUAL STUDIO 11.0\VC\INCLUDE\STDEXCEPT
D:\PROGRAM FILES (X86)\MICROSOFT VISUAL STUDIO 11.0\VC\INCLUDE\EXCEPTION
D:\PROGRAM FILES (X86)\MICROSOFT VISUAL STUDIO 11.0\VC\INCLUDE\XSTDDEF
D:\PROGRAM FILES (X86)\MICROSOFT VISUAL STUDIO 11.0\VC\INCLUDE\CSTDDEF
D:\PROGRAM FILES (X86)\MICROSOFT VISUAL STUDIO 11.0\VC\INCLUDE\STDDEF.H
D:\PROGRAM FILES (X86)\MICROSOFT VISUAL STUDIO 11.0\VC\INCLUDE\EH.H
D:\PROGRAM FILES (X86)\MICROSOFT VISUAL STUDIO 11.0\VC\INCLUDE\MALLOC.H
D:\PROGRAM FILES (X86)\MICROSOFT VISUAL STUDIO 11.0\VC\INCLUDE\XSTRING
D:\PROGRAM FILES (X86)\MICROSOFT VISUAL STUDIO 11.0\VC\INCLUDE\XMEMORY0
D:\PROGRAM FILES (X86)\MICROSOFT VISUAL STUDIO 11.0\VC\INCLUDE\LIMITS
D:\PROGRAM FILES (X86)\MICROSOFT VISUAL STUDIO 11.0\VC\INCLUDE\YMATH.H
D:\PROGRAM FILES (X86)\MICROSOFT VISUAL STUDIO 11.0\VC\INCLUDE\CFLOAT
D:\PROGRAM FILES (X86)\MICROSOFT VISUAL STUDIO 11.0\VC\INCLUDE\FLOAT.H
D:\PROGRAM FILES (X86)\MICROSOFT VISUAL STUDIO 11.0\VC\INCLUDE\CRTWRN.H
D:\PROGRAM FILES (X86)\MICROSOFT VISUAL STUDIO 11.0\VC\INCLUDE\CWCHAR
D:\PROGRAM FILES (X86)\MICROSOFT VISUAL STUDIO 11.0\VC\INCLUDE\WCHAR.H
D:\PROGRAM FILES (X86)\MICROSOFT VISUAL STUDIO 11.0\VC\INCLUDE\WTIME.INL
D:\PROGRAM FILES (X86)\MICROSOFT VISUAL STUDIO 11.0\VC\INCLUDE\NEW
D:\PROGRAM FILES (X86)\MICROSOFT VISUAL STUDIO 11.0\VC\INCLUDE\XUTILITY
D:\PROGRAM FILES (X86)\MICROSOFT VISUAL STUDIO 11.0\VC\INCLUDE\UTILITY
D:\PROGRAM FILES (X86)\MICROSOFT VISUAL STUDIO 11.0\VC\INCLUDE\IOSFWD
D:\PROGRAM FILES (X86)\MICROSOFT VISUAL STUDIO 11.0\VC\INCLUDE\CRTDBG.H
D:\PROGRAM FILES (X86)\MICROSOFT VISUAL STUDIO 11.0\VC\INCLUDE\TYPE_TRAITS
D:\PROGRAM FILES (X86)\MICROSOFT VISUAL STUDIO 11.0\VC\INCLUDE\XREFWRAP
D:\PROGRAM FILES (X86)\MICROSOFT VISUAL STUDIO 11.0\VC\INCLUDE\XATOMIC0.H
D:\PROGRAM FILES (X86)\MICROSOFT VISUAL STUDIO 11.0\VC\INCLUDE\INTRIN.H
D:\PROGRAM FILES (X86)\MICROSOFT VISUAL STUDIO 11.0\VC\INCLUDE\SETJMP.H
D:\PROGRAM FILES (X86)\MICROSOFT VISUAL STUDIO 11.0\VC\INCLUDE\IMMINTRIN.H
D:\PROGRAM FILES (X86)\MICROSOFT VISUAL STUDIO 11.0\VC\INCLUDE\WMMINTRIN.H
D:\PROGRAM FILES (X86)\MICROSOFT VISUAL STUDIO 11.0\VC\INCLUDE\NMMINTRIN.H
D:\PROGRAM FILES (X86)\MICROSOFT VISUAL STUDIO 11.0\VC\INCLUDE\SMMINTRIN.H
D:\PROGRAM FILES (X86)\MICROSOFT VISUAL STUDIO 11.0\VC\INCLUDE\TMMINTRIN.H
D:\PROGRAM FILES (X86)\MICROSOFT VISUAL STUDIO 11.0\VC\INCLUDE\PMMINTRIN.H
D:\PROGRAM FILES (X86)\MICROSOFT VISUAL STUDIO 11.0\VC\INCLUDE\EMMINTRIN.H
D:\PROGRAM FILES (X86)\MICROSOFT VISUAL STUDIO 11.0\VC\INCLUDE\XMMINTRIN.H
D:\PROGRAM FILES (X86)\MICROSOFT VISUAL STUDIO 11.0\VC\INCLUDE\MMINTRIN.H
D:\PROGRAM FILES (X86)\MICROSOFT VISUAL STUDIO 11.0\VC\INCLUDE\AMMINTRIN.H
D:\PROGRAM FILES (X86)\MICROSOFT VISUAL STUDIO 11.0\VC\INCLUDE\MM3DNOW.H
D:\PROGRAM FILES (X86)\MICROSOFT VISUAL STUDIO 11.0\VC\INCLUDE\TYPEINFO
D:\PROGRAM FILES (X86)\MICROSOFT VISUAL STUDIO 11.0\VC\INCLUDE\XLOCINFO
D:\PROGRAM FILES (X86)\MICROSOFT VISUAL STUDIO 11.0\VC\INCLUDE\XLOCINFO.H
D:\PROGRAM FILES (X86)\MICROSOFT VISUAL STUDIO 11.0\VC\INCLUDE\CTYPE.H
D:\PROGRAM FILES (X86)\MICROSOFT VISUAL STUDIO 11.0\VC\INCLUDE\LOCALE.H
D:\PROGRAM FILES (X86)\MICROSOFT VISUAL STUDIO 11.0\VC\INCLUDE\XDEBUG
D:\PROGRAM FILES (X86)\MICROSOFT VISUAL STUDIO 11.0\VC\INCLUDE\XFACET
D:\PROGRAM FILES (X86)\MICROSOFT VISUAL STUDIO 11.0\VC\INCLUDE\SYSTEM_ERROR
D:\PROGRAM FILES (X86)\MICROSOFT VISUAL STUDIO 11.0\VC\INCLUDE\CERRNO
D:\PROGRAM FILES (X86)\MICROSOFT VISUAL STUDIO 11.0\VC\INCLUDE\ERRNO.H
D:\PROGRAM FILES (X86)\MICROSOFT VISUAL STUDIO 11.0\VC\INCLUDE\SHARE.H
D:\PROGRAM FILES (X86)\MICROSOFT VISUAL STUDIO 11.0\VC\INCLUDE\SSTREAM
D:\PROGRAM FILES (X86)\MICROSOFT VISUAL STUDIO 11.0\VC\INCLUDE\STRING
D:\PROGRAM FILES (X86)\MICROSOFT VISUAL STUDIO 11.0\VC\INCLUDE\ITERATOR
D:\PROGRAM FILES (X86)\MICROSOFT VISUAL STUDIO 11.0\VC\INCLUDE\FSTREAM
D:\PROGRAM FILES (X86)\MICROSOFT VISUAL STUDIO 11.0\VC\INCLUDE\VECTOR
D:\PROGRAM FILES (X86)\MICROSOFT VISUAL STUDIO 11.0\VC\INCLUDE\XMEMORY
D:\PROGRAM FILES (X86)\MICROSOFT VISUAL STUDIO 11.0\VC\INCLUDE\CCTYPE
D:\PROJECTS\_C++\AEDA\P1 - VINHOS\UTILIDADES.H
D:\PROGRAM FILES (X86)\MICROSOFT VISUAL STUDIO 11.0\VC\INCLUDE\MAP
D:\PROGRAM FILES (X86)\MICROSOFT VISUAL STUDIO 11.0\VC\INCLUDE\XTREE
D:\PROGRAM FILES (X86)\MICROSOFT VISUAL STUDIO 11.0\VC\INCLUDE\CTIME
D:\PROGRAM FILES (X86)\MICROSOFT VISUAL STUDIO 11.0\VC\INCLUDE\TIME.H
D:\PROGRAM FILES (X86)\MICROSOFT VISUAL STUDIO 11.0\VC\INCLUDE\TIME.INL
^D:\PROJECTS\_C++\AEDA\P1 - VINHOS\EMPRESATRANSPORTE.CPP
D:\PROGRAM FILES (X86)\MICROSOFT VISUAL STUDIO 11.0\VC\BIN\1033\CLUI.DLL
C:\WINDOWS\GLOBALIZATION\SORTING\SORTDEFAULT.NLS
C:\WINDOWS\SYSTEM32\TZRES.DLL
D:\PROJECTS\_C++\AEDA\P1 - VINHOS\EMPRESATRANSPORTE.H
D:\PROGRAM FILES (X86)\MICROSOFT VISUAL STUDIO 11.0\VC\INCLUDE\IOSTREAM
D:\PROGRAM FILES (X86)\MICROSOFT VISUAL STUDIO 11.0\VC\INCLUDE\ISTREAM
D:\PROGRAM FILES (X86)\MICROSOFT VISUAL STUDIO 11.0\VC\INCLUDE\OSTREAM
D:\PROGRAM FILES (X86)\MICROSOFT VISUAL STUDIO 11.0\VC\INCLUDE\IOS
D:\PROGRAM FILES (X86)\MICROSOFT VISUAL STUDIO 11.0\VC\INCLUDE\XLOCNUM
D:\PROGRAM FILES (X86)\MICROSOFT VISUAL STUDIO 11.0\VC\INCLUDE\CLIMITS
D:\PROGRAM FILES (X86)\MICROSOFT VISUAL STUDIO 11.0\VC\INCLUDE\YVALS.H
D:\PROGRAM FILES (X86)\MICROSOFT VISUAL STUDIO 11.0\VC\INCLUDE\XKEYCHECK.H
D:\PROGRAM FILES (X86)\MICROSOFT VISUAL STUDIO 11.0\VC\INCLUDE\CRTDEFS.H
D:\PROGRAM FILES (X86)\MICROSOFT VISUAL STUDIO 11.0\VC\INCLUDE\SAL.H
D:\PROGRAM FILES (X86)\MICROSOFT VISUAL STUDIO 11.0\VC\INCLUDE\CONCURRENCYSAL.H
D:\PROGRAM FILES (X86)\MICROSOFT VISUAL STUDIO 11.0\VC\INCLUDE\VADEFS.H
D:\PROGRAM FILES (X86)\MICROSOFT VISUAL STUDIO 11.0\VC\INCLUDE\USE_ANSI.H
D:\PROGRAM FILES (X86)\MICROSOFT VISUAL STUDIO 11.0\VC\INCLUDE\LIMITS.H
D:\PROGRAM FILES (X86)\MICROSOFT VISUAL STUDIO 11.0\VC\INCLUDE\CMATH
D:\PROGRAM FILES (X86)\MICROSOFT VISUAL STUDIO 11.0\VC\INCLUDE\MATH.H
D:\PROGRAM FILES (X86)\MICROSOFT VISUAL STUDIO 11.0\VC\INCLUDE\XTGMATH.H
D:\PROGRAM FILES (X86)\MICROSOFT VISUAL STUDIO 11.0\VC\INCLUDE\XTR1COMMON
D:\PROGRAM FILES (X86)\MICROSOFT VISUAL STUDIO 11.0\VC\INCLUDE\CSTDIO
D:\PROGRAM FILES (X86)\MICROSOFT VISUAL STUDIO 11.0\VC\INCLUDE\STDIO.H
D:\PROGRAM FILES (X86)\MICROSOFT VISUAL STUDIO 11.0\VC\INCLUDE\SWPRINTF.INL
D:\PROGRAM FILES (X86)\MICROSOFT VISUAL STUDIO 11.0\VC\INCLUDE\CSTDLIB
D:\PROGRAM FILES (X86)\MICROSOFT VISUAL STUDIO 11.0\VC\INCLUDE\STDLIB.H
D:\PROGRAM FILES (X86)\MICROSOFT VISUAL STUDIO 11.0\VC\INCLUDE\STREAMBUF
D:\PROGRAM FILES (X86)\MICROSOFT VISUAL STUDIO 11.0\VC\INCLUDE\XIOSBASE
D:\PROGRAM FILES (X86)\MICROSOFT VISUAL STUDIO 11.0\VC\INCLUDE\XLOCALE
D:\PROGRAM FILES (X86)\MICROSOFT VISUAL STUDIO 11.0\VC\INCLUDE\CSTRING
D:\PROGRAM FILES (X86)\MICROSOFT VISUAL STUDIO 11.0\VC\INCLUDE\STRING.H
D:\PROGRAM FILES (X86)\MICROSOFT VISUAL STUDIO 11.0\VC\INCLUDE\STDEXCEPT
D:\PROGRAM FILES (X86)\MICROSOFT VISUAL STUDIO 11.0\VC\INCLUDE\EXCEPTION
D:\PROGRAM FILES (X86)\MICROSOFT VISUAL STUDIO 11.0\VC\INCLUDE\XSTDDEF
D:\PROGRAM FILES (X86)\MICROSOFT VISUAL STUDIO 11.0\VC\INCLUDE\CSTDDEF
D:\PROGRAM FILES (X86)\MICROSOFT VISUAL STUDIO 11.0\VC\INCLUDE\STDDEF.H
D:\PROGRAM FILES (X86)\MICROSOFT VISUAL STUDIO 11.0\VC\INCLUDE\EH.H
D:\PROGRAM FILES (X86)\MICROSOFT VISUAL STUDIO 11.0\VC\INCLUDE\MALLOC.H
D:\PROGRAM FILES (X86)\MICROSOFT VISUAL STUDIO 11.0\VC\INCLUDE\XSTRING
D:\PROGRAM FILES (X86)\MICROSOFT VISUAL STUDIO 11.0\VC\INCLUDE\XMEMORY0
D:\PROGRAM FILES (X86)\MICROSOFT VISUAL STUDIO 11.0\VC\INCLUDE\LIMITS
D:\PROGRAM FILES (X86)\MICROSOFT VISUAL STUDIO 11.0\VC\INCLUDE\YMATH.H
D:\PROGRAM FILES (X86)\MICROSOFT VISUAL STUDIO 11.0\VC\INCLUDE\CFLOAT
D:\PROGRAM FILES (X86)\MICROSOFT VISUAL STUDIO 11.0\VC\INCLUDE\FLOAT.H
D:\PROGRAM FILES (X86)\MICROSOFT VISUAL STUDIO 11.0\VC\INCLUDE\CRTWRN.H
D:\PROGRAM FILES (X86)\MICROSOFT VISUAL STUDIO 11.0\VC\INCLUDE\CWCHAR
D:\PROGRAM FILES (X86)\MICROSOFT VISUAL STUDIO 11.0\VC\INCLUDE\WCHAR.H
D:\PROGRAM FILES (X86)\MICROSOFT VISUAL STUDIO 11.0\VC\INCLUDE\WTIME.INL
D:\PROGRAM FILES (X86)\MICROSOFT VISUAL STUDIO 11.0\VC\INCLUDE\NEW
D:\PROGRAM FILES (X86)\MICROSOFT VISUAL STUDIO 11.0\VC\INCLUDE\XUTILITY
D:\PROGRAM FILES (X86)\MICROSOFT VISUAL STUDIO 11.0\VC\INCLUDE\UTILITY
D:\PROGRAM FILES (X86)\MICROSOFT VISUAL STUDIO 11.0\VC\INCLUDE\IOSFWD
D:\PROGRAM FILES (X86)\MICROSOFT VISUAL STUDIO 11.0\VC\INCLUDE\CRTDBG.H
D:\PROGRAM FILES (X86)\MICROSOFT VISUAL STUDIO 11.0\VC\INCLUDE\TYPE_TRAITS
D:\PROGRAM FILES (X86)\MICROSOFT VISUAL STUDIO 11.0\VC\INCLUDE\XREFWRAP
D:\PROGRAM FILES (X86)\MICROSOFT VISUAL STUDIO 11.0\VC\INCLUDE\XATOMIC0.H
D:\PROGRAM FILES (X86)\MICROSOFT VISUAL STUDIO 11.0\VC\INCLUDE\INTRIN.H
D:\PROGRAM FILES (X86)\MICROSOFT VISUAL STUDIO 11.0\VC\INCLUDE\SETJMP.H
D:\PROGRAM FILES (X86)\MICROSOFT VISUAL STUDIO 11.0\VC\INCLUDE\IMMINTRIN.H
D:\PROGRAM FILES (X86)\MICROSOFT VISUAL STUDIO 11.0\VC\INCLUDE\WMMINTRIN.H
D:\PROGRAM FILES (X86)\MICROSOFT VISUAL STUDIO 11.0\VC\INCLUDE\NMMINTRIN.H
D:\PROGRAM FILES (X86)\MICROSOFT VISUAL STUDIO 11.0\VC\INCLUDE\SMMINTRIN.H
D:\PROGRAM FILES (X86)\MICROSOFT VISUAL STUDIO 11.0\VC\INCLUDE\TMMINTRIN.H
D:\PROGRAM FILES (X86)\MICROSOFT VISUAL STUDIO 11.0\VC\INCLUDE\PMMINTRIN.H
D:\PROGRAM FILES (X86)\MICROSOFT VISUAL STUDIO 11.0\VC\INCLUDE\EMMINTRIN.H
D:\PROGRAM FILES (X86)\MICROSOFT VISUAL STUDIO 11.0\VC\INCLUDE\XMMINTRIN.H
D:\PROGRAM FILES (X86)\MICROSOFT VISUAL STUDIO 11.0\VC\INCLUDE\MMINTRIN.H
D:\PROGRAM FILES (X86)\MICROSOFT VISUAL STUDIO 11.0\VC\INCLUDE\AMMINTRIN.H
D:\PROGRAM FILES (X86)\MICROSOFT VISUAL STUDIO 11.0\VC\INCLUDE\MM3DNOW.H
D:\PROGRAM FILES (X86)\MICROSOFT VISUAL STUDIO 11.0\VC\INCLUDE\TYPEINFO
D:\PROGRAM FILES (X86)\MICROSOFT VISUAL STUDIO 11.0\VC\INCLUDE\XLOCINFO
D:\PROGRAM FILES (X86)\MICROSOFT VISUAL STUDIO 11.0\VC\INCLUDE\XLOCINFO.H
D:\PROGRAM FILES (X86)\MICROSOFT VISUAL STUDIO 11.0\VC\INCLUDE\CTYPE.H
D:\PROGRAM FILES (X86)\MICROSOFT VISUAL STUDIO 11.0\VC\INCLUDE\LOCALE.H
D:\PROGRAM FILES (X86)\MICROSOFT VISUAL STUDIO 11.0\VC\INCLUDE\XDEBUG
D:\PROGRAM FILES (X86)\MICROSOFT VISUAL STUDIO 11.0\VC\INCLUDE\XFACET
D:\PROGRAM FILES (X86)\MICROSOFT VISUAL STUDIO 11.0\VC\INCLUDE\SYSTEM_ERROR
D:\PROGRAM FILES (X86)\MICROSOFT VISUAL STUDIO 11.0\VC\INCLUDE\CERRNO
D:\PROGRAM FILES (X86)\MICROSOFT VISUAL STUDIO 11.0\VC\INCLUDE\ERRNO.H
D:\PROGRAM FILES (X86)\MICROSOFT VISUAL STUDIO 11.0\VC\INCLUDE\SHARE.H
D:\PROGRAM FILES (X86)\MICROSOFT VISUAL STUDIO 11.0\VC\INCLUDE\SSTREAM
D:\PROGRAM FILES (X86)\MICROSOFT VISUAL STUDIO 11.0\VC\INCLUDE\STRING
D:\PROGRAM FILES (X86)\MICROSOFT VISUAL STUDIO 11.0\VC\INCLUDE\ITERATOR
D:\PROGRAM FILES (X86)\MICROSOFT VISUAL STUDIO 11.0\VC\INCLUDE\FSTREAM
D:\PROGRAM FILES (X86)\MICROSOFT VISUAL STUDIO 11.0\VC\INCLUDE\VECTOR
D:\PROGRAM FILES (X86)\MICROSOFT VISUAL STUDIO 11.0\VC\INCLUDE\XMEMORY
D:\PROGRAM FILES (X86)\MICROSOFT VISUAL STUDIO 11.0\VC\INCLUDE\CCTYPE
D:\PROGRAM FILES (X86)\MICROSOFT VISUAL STUDIO 11.0\VC\INCLUDE\LIST
D:\PROJECTS\_C++\AEDA\P1 - VINHOS\VIATURA.H
D:\PROJECTS\_C++\AEDA\P1 - VINHOS\UTILIDADES.H
D:\PROGRAM FILES (X86)\MICROSOFT VISUAL STUDIO 11.0\VC\INCLUDE\MAP
D:\PROGRAM FILES (X86)\MICROSOFT VISUAL STUDIO 11.0\VC\INCLUDE\XTREE
D:\PROGRAM FILES (X86)\MICROSOFT VISUAL STUDIO 11.0\VC\INCLUDE\CTIME
D:\PROGRAM FILES (X86)\MICROSOFT VISUAL STUDIO 11.0\VC\INCLUDE\TIME.H
D:\PROGRAM FILES (X86)\MICROSOFT VISUAL STUDIO 11.0\VC\INCLUDE\TIME.INL
^D:\PROJECTS\_C++\AEDA\P1 - VINHOS\COOPERATIVA.MENU.CPP
D:\PROGRAM FILES (X86)\MICROSOFT VISUAL STUDIO 11.0\VC\BIN\1033\CLUI.DLL
C:\WINDOWS\GLOBALIZATION\SORTING\SORTDEFAULT.NLS
C:\WINDOWS\SYSTEM32\TZRES.DLL
D:\PROGRAM FILES (X86)\MICROSOFT VISUAL STUDIO 11.0\COMMON7\IDE\MSPDBSRV.EXE
D:\PROJECTS\_C++\AEDA\P1 - VINHOS\COOPERATIVA.H
D:\PROGRAM FILES (X86)\MICROSOFT VISUAL STUDIO 11.0\VC\INCLUDE\IOSTREAM
D:\PROGRAM FILES (X86)\MICROSOFT VISUAL STUDIO 11.0\VC\INCLUDE\ISTREAM
D:\PROGRAM FILES (X86)\MICROSOFT VISUAL STUDIO 11.0\VC\INCLUDE\OSTREAM
D:\PROGRAM FILES (X86)\MICROSOFT VISUAL STUDIO 11.0\VC\INCLUDE\IOS
D:\PROGRAM FILES (X86)\MICROSOFT VISUAL STUDIO 11.0\VC\INCLUDE\XLOCNUM
D:\PROGRAM FILES (X86)\MICROSOFT VISUAL STUDIO 11.0\VC\INCLUDE\CLIMITS
D:\PROGRAM FILES (X86)\MICROSOFT VISUAL STUDIO 11.0\VC\INCLUDE\YVALS.H
D:\PROGRAM FILES (X86)\MICROSOFT VISUAL STUDIO 11.0\VC\INCLUDE\XKEYCHECK.H
D:\PROGRAM FILES (X86)\MICROSOFT VISUAL STUDIO 11.0\VC\INCLUDE\CRTDEFS.H
D:\PROGRAM FILES (X86)\MICROSOFT VISUAL STUDIO 11.0\VC\INCLUDE\SAL.H
D:\PROGRAM FILES (X86)\MICROSOFT VISUAL STUDIO 11.0\VC\INCLUDE\CONCURRENCYSAL.H
D:\PROGRAM FILES (X86)\MICROSOFT VISUAL STUDIO 11.0\VC\INCLUDE\VADEFS.H
D:\PROGRAM FILES (X86)\MICROSOFT VISUAL STUDIO 11.0\VC\INCLUDE\USE_ANSI.H
D:\PROGRAM FILES (X86)\MICROSOFT VISUAL STUDIO 11.0\VC\INCLUDE\LIMITS.H
D:\PROGRAM FILES (X86)\MICROSOFT VISUAL STUDIO 11.0\VC\INCLUDE\CMATH
D:\PROGRAM FILES (X86)\MICROSOFT VISUAL STUDIO 11.0\VC\INCLUDE\MATH.H
D:\PROGRAM FILES (X86)\MICROSOFT VISUAL STUDIO 11.0\VC\INCLUDE\XTGMATH.H
D:\PROGRAM FILES (X86)\MICROSOFT VISUAL STUDIO 11.0\VC\INCLUDE\XTR1COMMON
D:\PROGRAM FILES (X86)\MICROSOFT VISUAL STUDIO 11.0\VC\INCLUDE\CSTDIO
D:\PROGRAM FILES (X86)\MICROSOFT VISUAL STUDIO 11.0\VC\INCLUDE\STDIO.H
D:\PROGRAM FILES (X86)\MICROSOFT VISUAL STUDIO 11.0\VC\INCLUDE\SWPRINTF.INL
D:\PROGRAM FILES (X86)\MICROSOFT VISUAL STUDIO 11.0\VC\INCLUDE\CSTDLIB
D:\PROGRAM FILES (X86)\MICROSOFT VISUAL STUDIO 11.0\VC\INCLUDE\STDLIB.H
D:\PROGRAM FILES (X86)\MICROSOFT VISUAL STUDIO 11.0\VC\INCLUDE\STREAMBUF
D:\PROGRAM FILES (X86)\MICROSOFT VISUAL STUDIO 11.0\VC\INCLUDE\XIOSBASE
D:\PROGRAM FILES (X86)\MICROSOFT VISUAL STUDIO 11.0\VC\INCLUDE\XLOCALE
D:\PROGRAM FILES (X86)\MICROSOFT VISUAL STUDIO 11.0\VC\INCLUDE\CSTRING
D:\PROGRAM FILES (X86)\MICROSOFT VISUAL STUDIO 11.0\VC\INCLUDE\STRING.H
D:\PROGRAM FILES (X86)\MICROSOFT VISUAL STUDIO 11.0\VC\INCLUDE\STDEXCEPT
D:\PROGRAM FILES (X86)\MICROSOFT VISUAL STUDIO 11.0\VC\INCLUDE\EXCEPTION
D:\PROGRAM FILES (X86)\MICROSOFT VISUAL STUDIO 11.0\VC\INCLUDE\XSTDDEF
D:\PROGRAM FILES (X86)\MICROSOFT VISUAL STUDIO 11.0\VC\INCLUDE\CSTDDEF
D:\PROGRAM FILES (X86)\MICROSOFT VISUAL STUDIO 11.0\VC\INCLUDE\STDDEF.H
D:\PROGRAM FILES (X86)\MICROSOFT VISUAL STUDIO 11.0\VC\INCLUDE\EH.H
D:\PROGRAM FILES (X86)\MICROSOFT VISUAL STUDIO 11.0\VC\INCLUDE\MALLOC.H
D:\PROGRAM FILES (X86)\MICROSOFT VISUAL STUDIO 11.0\VC\INCLUDE\XSTRING
D:\PROGRAM FILES (X86)\MICROSOFT VISUAL STUDIO 11.0\VC\INCLUDE\XMEMORY0
D:\PROGRAM FILES (X86)\MICROSOFT VISUAL STUDIO 11.0\VC\INCLUDE\LIMITS
D:\PROGRAM FILES (X86)\MICROSOFT VISUAL STUDIO 11.0\VC\INCLUDE\YMATH.H
D:\PROGRAM FILES (X86)\MICROSOFT VISUAL STUDIO 11.0\VC\INCLUDE\CFLOAT
D:\PROGRAM FILES (X86)\MICROSOFT VISUAL STUDIO 11.0\VC\INCLUDE\FLOAT.H
D:\PROGRAM FILES (X86)\MICROSOFT VISUAL STUDIO 11.0\VC\INCLUDE\CRTWRN.H
D:\PROGRAM FILES (X86)\MICROSOFT VISUAL STUDIO 11.0\VC\INCLUDE\CWCHAR
D:\PROGRAM FILES (X86)\MICROSOFT VISUAL STUDIO 11.0\VC\INCLUDE\WCHAR.H
D:\PROGRAM FILES (X86)\MICROSOFT VISUAL STUDIO 11.0\VC\INCLUDE\WTIME.INL
D:\PROGRAM FILES (X86)\MICROSOFT VISUAL STUDIO 11.0\VC\INCLUDE\NEW
D:\PROGRAM FILES (X86)\MICROSOFT VISUAL STUDIO 11.0\VC\INCLUDE\XUTILITY
D:\PROGRAM FILES (X86)\MICROSOFT VISUAL STUDIO 11.0\VC\INCLUDE\UTILITY
D:\PROGRAM FILES (X86)\MICROSOFT VISUAL STUDIO 11.0\VC\INCLUDE\IOSFWD
D:\PROGRAM FILES (X86)\MICROSOFT VISUAL STUDIO 11.0\VC\INCLUDE\CRTDBG.H
D:\PROGRAM FILES (X86)\MICROSOFT VISUAL STUDIO 11.0\VC\INCLUDE\TYPE_TRAITS
D:\PROGRAM FILES (X86)\MICROSOFT VISUAL STUDIO 11.0\VC\INCLUDE\XREFWRAP
D:\PROGRAM FILES (X86)\MICROSOFT VISUAL STUDIO 11.0\VC\INCLUDE\XATOMIC0.H
D:\PROGRAM FILES (X86)\MICROSOFT VISUAL STUDIO 11.0\VC\INCLUDE\INTRIN.H
D:\PROGRAM FILES (X86)\MICROSOFT VISUAL STUDIO 11.0\VC\INCLUDE\SETJMP.H
D:\PROGRAM FILES (X86)\MICROSOFT VISUAL STUDIO 11.0\VC\INCLUDE\IMMINTRIN.H
D:\PROGRAM FILES (X86)\MICROSOFT VISUAL STUDIO 11.0\VC\INCLUDE\WMMINTRIN.H
D:\PROGRAM FILES (X86)\MICROSOFT VISUAL STUDIO 11.0\VC\INCLUDE\NMMINTRIN.H
D:\PROGRAM FILES (X86)\MICROSOFT VISUAL STUDIO 11.0\VC\INCLUDE\SMMINTRIN.H
D:\PROGRAM FILES (X86)\MICROSOFT VISUAL STUDIO 11.0\VC\INCLUDE\TMMINTRIN.H
D:\PROGRAM FILES (X86)\MICROSOFT VISUAL STUDIO 11.0\VC\INCLUDE\PMMINTRIN.H
D:\PROGRAM FILES (X86)\MICROSOFT VISUAL STUDIO 11.0\VC\INCLUDE\EMMINTRIN.H
D:\PROGRAM FILES (X86)\MICROSOFT VISUAL STUDIO 11.0\VC\INCLUDE\XMMINTRIN.H
D:\PROGRAM FILES (X86)\MICROSOFT VISUAL STUDIO 11.0\VC\INCLUDE\MMINTRIN.H
D:\PROGRAM FILES (X86)\MICROSOFT VISUAL STUDIO 11.0\VC\INCLUDE\AMMINTRIN.H
D:\PROGRAM FILES (X86)\MICROSOFT VISUAL STUDIO 11.0\VC\INCLUDE\MM3DNOW.H
D:\PROGRAM FILES (X86)\MICROSOFT VISUAL STUDIO 11.0\VC\INCLUDE\TYPEINFO
D:\PROGRAM FILES (X86)\MICROSOFT VISUAL STUDIO 11.0\VC\INCLUDE\XLOCINFO
D:\PROGRAM FILES (X86)\MICROSOFT VISUAL STUDIO 11.0\VC\INCLUDE\XLOCINFO.H
D:\PROGRAM FILES (X86)\MICROSOFT VISUAL STUDIO 11.0\VC\INCLUDE\CTYPE.H
D:\PROGRAM FILES (X86)\MICROSOFT VISUAL STUDIO 11.0\VC\INCLUDE\LOCALE.H
D:\PROGRAM FILES (X86)\MICROSOFT VISUAL STUDIO 11.0\VC\INCLUDE\XDEBUG
D:\PROGRAM FILES (X86)\MICROSOFT VISUAL STUDIO 11.0\VC\INCLUDE\XFACET
D:\PROGRAM FILES (X86)\MICROSOFT VISUAL STUDIO 11.0\VC\INCLUDE\SYSTEM_ERROR
D:\PROGRAM FILES (X86)\MICROSOFT VISUAL STUDIO 11.0\VC\INCLUDE\CERRNO
D:\PROGRAM FILES (X86)\MICROSOFT VISUAL STUDIO 11.0\VC\INCLUDE\ERRNO.H
D:\PROGRAM FILES (X86)\MICROSOFT VISUAL STUDIO 11.0\VC\INCLUDE\SHARE.H
D:\PROGRAM FILES (X86)\MICROSOFT VISUAL STUDIO 11.0\VC\INCLUDE\SSTREAM
D:\PROGRAM FILES (X86)\MICROSOFT VISUAL STUDIO 11.0\VC\INCLUDE\STRING
D:\PROGRAM FILES (X86)\MICROSOFT VISUAL STUDIO 11.0\VC\INCLUDE\ITERATOR
D:\PROGRAM FILES (X86)\MICROSOFT VISUAL STUDIO 11.0\VC\INCLUDE\FSTREAM
D:\PROGRAM FILES (X86)\MICROSOFT VISUAL STUDIO 11.0\VC\INCLUDE\VECTOR
D:\PROGRAM FILES (X86)\MICROSOFT VISUAL STUDIO 11.0\VC\INCLUDE\XMEMORY
D:\PROGRAM FILES (X86)\MICROSOFT VISUAL STUDIO 11.0\VC\INCLUDE\CCTYPE
D:\PROGRAM FILES (X86)\MICROSOFT VISUAL STUDIO 11.0\VC\INCLUDE\UNORDERED_SET
D:\PROGRAM FILES (X86)\MICROSOFT VISUAL STUDIO 11.0\VC\INCLUDE\XHASH
D:\PROGRAM FILES (X86)\MICROSOFT VISUAL STUDIO 11.0\VC\INCLUDE\LIST
D:\PROJECTS\_C++\AEDA\P1 - VINHOS\PRODUTO.H
D:\PROGRAM FILES (X86)\MICROSOFT VISUAL STUDIO 11.0\VC\INCLUDE\CTIME
D:\PROGRAM FILES (X86)\MICROSOFT VISUAL STUDIO 11.0\VC\INCLUDE\TIME.H
D:\PROGRAM FILES (X86)\MICROSOFT VISUAL STUDIO 11.0\VC\INCLUDE\TIME.INL
D:\PROGRAM FILES (X86)\MICROSOFT VISUAL STUDIO 11.0\VC\INCLUDE\MAP
D:\PROGRAM FILES (X86)\MICROSOFT VISUAL STUDIO 11.0\VC\INCLUDE\XTREE
D:\PROJECTS\_C++\AEDA\P1 - VINHOS\UVA.H
D:\PROJECTS\_C++\AEDA\P1 - VINHOS\UTILIDADES.H
D:\PROJECTS\_C++\AEDA\P1 - VINHOS\PRODUTOR.H
D:\PROJECTS\_C++\AEDA\P1 - VINHOS\CLIENTE.H
D:\PROJECTS\_C++\AEDA\P1 - VINHOS\TRANSACAO.H
D:\PROJECTS\_C++\AEDA\P1 - VINHOS\EMPRESATRANSPORTE.H
D:\PROJECTS\_C++\AEDA\P1 - VINHOS\VIATURA.H
D:\PROJECTS\_C++\AEDA\P1 - VINHOS\BST.H
D:\PROGRAM FILES (X86)\MICROSOFT VISUAL STUDIO 11.0\VC\INCLUDE\STACK
D:\PROGRAM FILES (X86)\MICROSOFT VISUAL STUDIO 11.0\VC\INCLUDE\DEQUE
D:\PROGRAM FILES (X86)\MICROSOFT VISUAL STUDIO 11.0\VC\INCLUDE\QUEUE
D:\PROGRAM FILES (X86)\MICROSOFT VISUAL STUDIO 11.0\VC\INCLUDE\ALGORITHM
^D:\PROJECTS\_C++\AEDA\P1 - VINHOS\COOPERATIVA.CPP
D:\PROGRAM FILES (X86)\MICROSOFT VISUAL STUDIO 11.0\VC\BIN\1033\CLUI.DLL
C:\WINDOWS\GLOBALIZATION\SORTING\SORTDEFAULT.NLS
C:\WINDOWS\SYSTEM32\TZRES.DLL
D:\PROJECTS\_C++\AEDA\P1 - VINHOS\COOPERATIVA.H
D:\PROGRAM FILES (X86)\MICROSOFT VISUAL STUDIO 11.0\VC\INCLUDE\IOSTREAM
D:\PROGRAM FILES (X86)\MICROSOFT VISUAL STUDIO 11.0\VC\INCLUDE\ISTREAM
D:\PROGRAM FILES (X86)\MICROSOFT VISUAL STUDIO 11.0\VC\INCLUDE\OSTREAM
D:\PROGRAM FILES (X86)\MICROSOFT VISUAL STUDIO 11.0\VC\INCLUDE\IOS
D:\PROGRAM FILES (X86)\MICROSOFT VISUAL STUDIO 11.0\VC\INCLUDE\XLOCNUM
D:\PROGRAM FILES (X86)\MICROSOFT VISUAL STUDIO 11.0\VC\INCLUDE\CLIMITS
D:\PROGRAM FILES (X86)\MICROSOFT VISUAL STUDIO 11.0\VC\INCLUDE\YVALS.H
D:\PROGRAM FILES (X86)\MICROSOFT VISUAL STUDIO 11.0\VC\INCLUDE\XKEYCHECK.H
D:\PROGRAM FILES (X86)\MICROSOFT VISUAL STUDIO 11.0\VC\INCLUDE\CRTDEFS.H
D:\PROGRAM FILES (X86)\MICROSOFT VISUAL STUDIO 11.0\VC\INCLUDE\SAL.H
D:\PROGRAM FILES (X86)\MICROSOFT VISUAL STUDIO 11.0\VC\INCLUDE\CONCURRENCYSAL.H
D:\PROGRAM FILES (X86)\MICROSOFT VISUAL STUDIO 11.0\VC\INCLUDE\VADEFS.H
D:\PROGRAM FILES (X86)\MICROSOFT VISUAL STUDIO 11.0\VC\INCLUDE\USE_ANSI.H
D:\PROGRAM FILES (X86)\MICROSOFT VISUAL STUDIO 11.0\VC\INCLUDE\LIMITS.H
D:\PROGRAM FILES (X86)\MICROSOFT VISUAL STUDIO 11.0\VC\INCLUDE\CMATH
D:\PROGRAM FILES (X86)\MICROSOFT VISUAL STUDIO 11.0\VC\INCLUDE\MATH.H
D:\PROGRAM FILES (X86)\MICROSOFT VISUAL STUDIO 11.0\VC\INCLUDE\XTGMATH.H
D:\PROGRAM FILES (X86)\MICROSOFT VISUAL STUDIO 11.0\VC\INCLUDE\XTR1COMMON
D:\PROGRAM FILES (X86)\MICROSOFT VISUAL STUDIO 11.0\VC\INCLUDE\CSTDIO
D:\PROGRAM FILES (X86)\MICROSOFT VISUAL STUDIO 11.0\VC\INCLUDE\STDIO.H
D:\PROGRAM FILES (X86)\MICROSOFT VISUAL STUDIO 11.0\VC\INCLUDE\SWPRINTF.INL
D:\PROGRAM FILES (X86)\MICROSOFT VISUAL STUDIO 11.0\VC\INCLUDE\CSTDLIB
D:\PROGRAM FILES (X86)\MICROSOFT VISUAL STUDIO 11.0\VC\INCLUDE\STDLIB.H
D:\PROGRAM FILES (X86)\MICROSOFT VISUAL STUDIO 11.0\VC\INCLUDE\STREAMBUF
D:\PROGRAM FILES (X86)\MICROSOFT VISUAL STUDIO 11.0\VC\INCLUDE\XIOSBASE
D:\PROGRAM FILES (X86)\MICROSOFT VISUAL STUDIO 11.0\VC\INCLUDE\XLOCALE
D:\PROGRAM FILES (X86)\MICROSOFT VISUAL STUDIO 11.0\VC\INCLUDE\CSTRING
D:\PROGRAM FILES (X86)\MICROSOFT VISUAL STUDIO 11.0\VC\INCLUDE\STRING.H
D:\PROGRAM FILES (X86)\MICROSOFT VISUAL STUDIO 11.0\VC\INCLUDE\STDEXCEPT
D:\PROGRAM FILES (X86)\MICROSOFT VISUAL STUDIO 11.0\VC\INCLUDE\EXCEPTION
D:\PROGRAM FILES (X86)\MICROSOFT VISUAL STUDIO 11.0\VC\INCLUDE\XSTDDEF
D:\PROGRAM FILES (X86)\MICROSOFT VISUAL STUDIO 11.0\VC\INCLUDE\CSTDDEF
D:\PROGRAM FILES (X86)\MICROSOFT VISUAL STUDIO 11.0\VC\INCLUDE\STDDEF.H
D:\PROGRAM FILES (X86)\MICROSOFT VISUAL STUDIO 11.0\VC\INCLUDE\EH.H
D:\PROGRAM FILES (X86)\MICROSOFT VISUAL STUDIO 11.0\VC\INCLUDE\MALLOC.H
D:\PROGRAM FILES (X86)\MICROSOFT VISUAL STUDIO 11.0\VC\INCLUDE\XSTRING
D:\PROGRAM FILES (X86)\MICROSOFT VISUAL STUDIO 11.0\VC\INCLUDE\XMEMORY0
D:\PROGRAM FILES (X86)\MICROSOFT VISUAL STUDIO 11.0\VC\INCLUDE\LIMITS
D:\PROGRAM FILES (X86)\MICROSOFT VISUAL STUDIO 11.0\VC\INCLUDE\YMATH.H
D:\PROGRAM FILES (X86)\MICROSOFT VISUAL STUDIO 11.0\VC\INCLUDE\CFLOAT
D:\PROGRAM FILES (X86)\MICROSOFT VISUAL STUDIO 11.0\VC\INCLUDE\FLOAT.H
D:\PROGRAM FILES (X86)\MICROSOFT VISUAL STUDIO 11.0\VC\INCLUDE\CRTWRN.H
D:\PROGRAM FILES (X86)\MICROSOFT VISUAL STUDIO 11.0\VC\INCLUDE\CWCHAR
D:\PROGRAM FILES (X86)\MICROSOFT VISUAL STUDIO 11.0\VC\INCLUDE\WCHAR.H
D:\PROGRAM FILES (X86)\MICROSOFT VISUAL STUDIO 11.0\VC\INCLUDE\WTIME.INL
D:\PROGRAM FILES (X86)\MICROSOFT VISUAL STUDIO 11.0\VC\INCLUDE\NEW
D:\PROGRAM FILES (X86)\MICROSOFT VISUAL STUDIO 11.0\VC\INCLUDE\XUTILITY
D:\PROGRAM FILES (X86)\MICROSOFT VISUAL STUDIO 11.0\VC\INCLUDE\UTILITY
D:\PROGRAM FILES (X86)\MICROSOFT VISUAL STUDIO 11.0\VC\INCLUDE\IOSFWD
D:\PROGRAM FILES (X86)\MICROSOFT VISUAL STUDIO 11.0\VC\INCLUDE\CRTDBG.H
D:\PROGRAM FILES (X86)\MICROSOFT VISUAL STUDIO 11.0\VC\INCLUDE\TYPE_TRAITS
D:\PROGRAM FILES (X86)\MICROSOFT VISUAL STUDIO 11.0\VC\INCLUDE\XREFWRAP
D:\PROGRAM FILES (X86)\MICROSOFT VISUAL STUDIO 11.0\VC\INCLUDE\XATOMIC0.H
D:\PROGRAM FILES (X86)\MICROSOFT VISUAL STUDIO 11.0\VC\INCLUDE\INTRIN.H
D:\PROGRAM FILES (X86)\MICROSOFT VISUAL STUDIO 11.0\VC\INCLUDE\SETJMP.H
D:\PROGRAM FILES (X86)\MICROSOFT VISUAL STUDIO 11.0\VC\INCLUDE\IMMINTRIN.H
D:\PROGRAM FILES (X86)\MICROSOFT VISUAL STUDIO 11.0\VC\INCLUDE\WMMINTRIN.H
D:\PROGRAM FILES (X86)\MICROSOFT VISUAL STUDIO 11.0\VC\INCLUDE\NMMINTRIN.H
D:\PROGRAM FILES (X86)\MICROSOFT VISUAL STUDIO 11.0\VC\INCLUDE\SMMINTRIN.H
D:\PROGRAM FILES (X86)\MICROSOFT VISUAL STUDIO 11.0\VC\INCLUDE\TMMINTRIN.H
D:\PROGRAM FILES (X86)\MICROSOFT VISUAL STUDIO 11.0\VC\INCLUDE\PMMINTRIN.H
D:\PROGRAM FILES (X86)\MICROSOFT VISUAL STUDIO 11.0\VC\INCLUDE\EMMINTRIN.H
D:\PROGRAM FILES (X86)\MICROSOFT VISUAL STUDIO 11.0\VC\INCLUDE\XMMINTRIN.H
D:\PROGRAM FILES (X86)\MICROSOFT VISUAL STUDIO 11.0\VC\INCLUDE\MMINTRIN.H
D:\PROGRAM FILES (X86)\MICROSOFT VISUAL STUDIO 11.0\VC\INCLUDE\AMMINTRIN.H
D:\PROGRAM FILES (X86)\MICROSOFT VISUAL STUDIO 11.0\VC\INCLUDE\MM3DNOW.H
D:\PROGRAM FILES (X86)\MICROSOFT VISUAL STUDIO 11.0\VC\INCLUDE\TYPEINFO
D:\PROGRAM FILES (X86)\MICROSOFT VISUAL STUDIO 11.0\VC\INCLUDE\XLOCINFO
D:\PROGRAM FILES (X86)\MICROSOFT VISUAL STUDIO 11.0\VC\INCLUDE\XLOCINFO.H
D:\PROGRAM FILES (X86)\MICROSOFT VISUAL STUDIO 11.0\VC\INCLUDE\CTYPE.H
D:\PROGRAM FILES (X86)\MICROSOFT VISUAL STUDIO 11.0\VC\INCLUDE\LOCALE.H
D:\PROGRAM FILES (X86)\MICROSOFT VISUAL STUDIO 11.0\VC\INCLUDE\XDEBUG
D:\PROGRAM FILES (X86)\MICROSOFT VISUAL STUDIO 11.0\VC\INCLUDE\XFACET
D:\PROGRAM FILES (X86)\MICROSOFT VISUAL STUDIO 11.0\VC\INCLUDE\SYSTEM_ERROR
D:\PROGRAM FILES (X86)\MICROSOFT VISUAL STUDIO 11.0\VC\INCLUDE\CERRNO
D:\PROGRAM FILES (X86)\MICROSOFT VISUAL STUDIO 11.0\VC\INCLUDE\ERRNO.H
D:\PROGRAM FILES (X86)\MICROSOFT VISUAL STUDIO 11.0\VC\INCLUDE\SHARE.H
D:\PROGRAM FILES (X86)\MICROSOFT VISUAL STUDIO 11.0\VC\INCLUDE\SSTREAM
D:\PROGRAM FILES (X86)\MICROSOFT VISUAL STUDIO 11.0\VC\INCLUDE\STRING
D:\PROGRAM FILES (X86)\MICROSOFT VISUAL STUDIO 11.0\VC\INCLUDE\ITERATOR
D:\PROGRAM FILES (X86)\MICROSOFT VISUAL STUDIO 11.0\VC\INCLUDE\FSTREAM
D:\PROGRAM FILES (X86)\MICROSOFT VISUAL STUDIO 11.0\VC\INCLUDE\VECTOR
D:\PROGRAM FILES (X86)\MICROSOFT VISUAL STUDIO 11.0\VC\INCLUDE\XMEMORY
D:\PROGRAM FILES (X86)\MICROSOFT VISUAL STUDIO 11.0\VC\INCLUDE\CCTYPE
D:\PROGRAM FILES (X86)\MICROSOFT VISUAL STUDIO 11.0\VC\INCLUDE\UNORDERED_SET
D:\PROGRAM FILES (X86)\MICROSOFT VISUAL STUDIO 11.0\VC\INCLUDE\XHASH
D:\PROGRAM FILES (X86)\MICROSOFT VISUAL STUDIO 11.0\VC\INCLUDE\LIST
D:\PROJECTS\_C++\AEDA\P1 - VINHOS\PRODUTO.H
D:\PROGRAM FILES (X86)\MICROSOFT VISUAL STUDIO 11.0\VC\INCLUDE\CTIME
D:\PROGRAM FILES (X86)\MICROSOFT VISUAL STUDIO 11.0\VC\INCLUDE\TIME.H
D:\PROGRAM FILES (X86)\MICROSOFT VISUAL STUDIO 11.0\VC\INCLUDE\TIME.INL
D:\PROGRAM FILES (X86)\MICROSOFT VISUAL STUDIO 11.0\VC\INCLUDE\MAP
D:\PROGRAM FILES (X86)\MICROSOFT VISUAL STUDIO 11.0\VC\INCLUDE\XTREE
D:\PROJECTS\_C++\AEDA\P1 - VINHOS\UVA.H
D:\PROJECTS\_C++\AEDA\P1 - VINHOS\UTILIDADES.H
D:\PROJECTS\_C++\AEDA\P1 - VINHOS\PRODUTOR.H
D:\PROJECTS\_C++\AEDA\P1 - VINHOS\CLIENTE.H
D:\PROJECTS\_C++\AEDA\P1 - VINHOS\TRANSACAO.H
D:\PROJECTS\_C++\AEDA\P1 - VINHOS\EMPRESATRANSPORTE.H
D:\PROJECTS\_C++\AEDA\P1 - VINHOS\VIATURA.H
D:\PROJECTS\_C++\AEDA\P1 - VINHOS\BST.H
D:\PROGRAM FILES (X86)\MICROSOFT VISUAL STUDIO 11.0\VC\INCLUDE\STACK
D:\PROGRAM FILES (X86)\MICROSOFT VISUAL STUDIO 11.0\VC\INCLUDE\DEQUE
D:\PROGRAM FILES (X86)\MICROSOFT VISUAL STUDIO 11.0\VC\INCLUDE\QUEUE
D:\PROGRAM FILES (X86)\MICROSOFT VISUAL STUDIO 11.0\VC\INCLUDE\ALGORITHM
